Province_State,Country_Region,Last_Update,Lat,Long_,Confirmed,Deaths,Recovered,Active,FIPS,Incident_Rate,Total_Test_Results,People_Hospitalized,Case_Fatality_Ratio,UID,ISO3,Testing_Rate,Hospitalization_Rate
Alabama,US,2021-02-28 05:30:29,32.3182,-86.9023,492683,9930,285130.0,197623.0,1.0,10048.223756599029,4032426.0,,2.0154947501740472,84000001.0,USA,82240.9515447612,
Alaska,US,2021-02-28 05:30:29,61.3707,-152.4044,58295,290,,57973.0,2.0,7964.376764245535,1679675.0,,0.4977429929801074,84000002.0,USA,229606.5177125125,
American Samoa,US,2021-02-28 05:30:29,-14.271,-170.132,0,0,,0.0,60.0,0.0,2140.0,,,16.0,ASM,3846.084721698028,
Arizona,US,2021-02-28 05:30:29,33.7298,-111.4312,815707,15967,,799740.0,4.0,11206.741517770231,7623393.0,,1.9574430524685944,84000004.0,USA,51486.75240430422,
Arkansas,US,2021-02-28 05:30:29,34.9697,-92.3731,319195,5417,309268.0,4510.0,5.0,10577.061996073966,2641892.0,,1.697081721204906,84000005.0,USA,87543.52502680758,
California,US,2021-02-28 05:30:29,36.1162,-119.6816,3626611,51729,,3527994.0,6.0,9018.925611955572,48219490.0,,1.4578886725644844,84000006.0,USA,122036.89476038846,
Colorado,US,2021-02-28 05:30:29,39.0598,-105.3111,427462,5945,,421517.0,8.0,7422.844179694987,6190522.0,,1.3907668985781192,84000008.0,USA,107497.93010132779,
Connecticut,US,2021-02-28 05:30:29,41.5978,-72.7554,279946,7622,,272324.0,9.0,7851.990597110415,6299277.0,,2.7226679431033127,84000009.0,USA,176683.588165553,
Delaware,US,2021-02-28 05:30:29,39.3185,-75.5071,86517,1418,,85099.0,10.0,8884.801656253467,1387364.0,,1.6389842458707538,84000010.0,USA,142474.35723645563,
Diamond Princess,US,2021-02-28 05:30:29,,,49,0,,49.0,88888.0,,,,0.0,84088888.0,USA,,
District of Columbia,US,2021-02-28 05:30:29,38.8974,-77.0268,40478,1010,28842.0,10626.0,11.0,5735.46685861404,1221563.0,,2.495182568308711,84000011.0,USA,173087.45743883448,
Florida,US,2021-02-28 05:30:29,27.7663,-81.6868,1903682,30734,,1872948.0,12.0,8863.512948314807,23132924.0,,1.6144503126047312,84000012.0,USA,107706.5242022472,
Georgia,US,2021-02-28 05:30:29,33.0406,-83.6431,1004187,17294,,986893.0,13.0,9457.916483124012,7181994.0,,1.7221891938453695,84000013.0,USA,67643.47619945067,
Grand Princess,US,2021-02-28 05:30:29,,,103,3,,100.0,99999.0,,,,2.9126213592233015,84099999.0,USA,,
Guam,US,2021-02-28 05:30:29,13.4443,144.7937,7734,130,7564.0,40.0,66.0,4709.2778985441055,117602.0,,1.6808895784846134,316.0,GUM,71608.54660260977,
Hawaii,US,2021-02-28 05:30:29,21.0943,-157.4983,28369,439,,27267.0,15.0,1956.7446774849705,1107517.0,,1.5809420682187332,84000015.0,USA,78221.54827555032,
Idaho,US,2021-02-28 05:30:29,44.2405,-114.4788,171140,1860,93975.0,75305.0,16.0,9576.59626258698,637883.0,,1.0868294963188032,84000016.0,USA,35694.448718988955,
Illinois,US,2021-02-28 05:30:29,40.3495,-88.9861,1185447,22710,,1162657.0,17.0,9354.354042722036,18069753.0,,1.9158623447421768,84000017.0,USA,142597.91864168536,
Indiana,US,2021-02-28 05:30:29,39.8494,-86.2583,660942,12556,,648386.0,18.0,9817.595060410244,7989954.0,,1.899712834106472,84000018.0,USA,118682.32450548625,
Iowa,US,2021-02-28 05:30:29,42.0115,-93.2105,336282,5470,314750.0,43213.0,19.0,11519.015425965194,1312007.0,,1.5050917225458338,84000019.0,USA,41584.08529763207,
Kansas,US,2021-02-28 05:30:29,38.5266,-96.7265,295997,4730,,291305.0,20.0,10160.14751585308,1254463.0,,1.5851512008567654,84000020.0,USA,43059.65645996278,
Kentucky,US,2021-02-28 05:30:29,37.6681,-84.6701,403947,4625,47525.0,351797.0,21.0,9041.552503954521,3904567.0,,1.1449521843212105,84000021.0,USA,87395.98891861603,
Louisiana,US,2021-02-28 05:30:29,31.1695,-91.8678,428592,9587,408463.0,10542.0,22.0,9219.423360123075,5544678.0,,2.2368592974203905,84000022.0,USA,119271.32069091467,
Maine,US,2021-02-28 05:30:29,44.6939,-69.3819,44493,702,12798.0,30993.0,23.0,3309.968963229015,1619959.0,,1.5777762794147394,84000023.0,USA,120513.65409622887,
Maryland,US,2021-02-28 05:30:29,39.0639,-76.8021,381272,7856,9659.0,363757.0,24.0,6306.519696709055,7848245.0,,2.060471264608993,84000024.0,USA,129815.75273583786,
Massachusetts,US,2021-02-28 05:30:29,42.2302,-71.5301,579680,16067,494740.0,68873.0,25.0,8410.297391237988,16105520.0,,2.7717016284846814,84000025.0,USA,233667.2178452443,
Michigan,US,2021-02-28 05:30:29,43.3266,-84.5361,645550,16508,541258.0,87784.0,26.0,6463.995629455793,10290366.0,,2.557199287429324,84000026.0,USA,103039.08426845404,
Minnesota,US,2021-02-28 05:30:29,45.6945,-93.9002,483790,6543,469959.0,7288.0,27.0,8578.396604601152,6891674.0,,1.3524463093490977,84000027.0,USA,122200.77480232752,
Mississippi,US,2021-02-28 05:30:29,32.7416,-89.6787,294091,6669,273437.0,13985.0,28.0,9881.595309912242,1730277.0,,2.2676654504898144,84000028.0,USA,58138.117412804255,
Missouri,US,2021-02-28 05:30:29,38.4561,-92.2884,562624,8282,,486524.0,29.0,8062.090504361109,4472822.0,,1.6735885854023302,84000029.0,USA,72877.7918046452,
Montana,US,2021-02-28 05:30:29,46.9219,-110.4544,99837,1356,96724.0,1757.0,30.0,9341.228954937322,1078914.0,,1.3582138886384807,84000030.0,USA,100948.37281456018,
Nebraska,US,2021-02-28 05:30:29,41.1254,-98.2681,200720,2082,154339.0,44299.0,31.0,10376.301173278853,2366126.0,,1.0372658429653248,84000031.0,USA,122317.83574096055,
Nevada,US,2021-02-28 05:30:29,38.3135,-117.0554,293488,4957,,288531.0,32.0,9528.34856416363,2712509.0,,1.6889958022133784,84000032.0,USA,88064.01364086756,
New Hampshire,US,2021-02-28 05:30:29,43.4525,-71.5639,75166,1170,71324.0,2672.0,33.0,5528.086483083538,1451685.0,,1.5565548253199586,84000033.0,USA,106764.23151684439,
New Jersey,US,2021-02-28 05:30:29,40.2989,-74.521,786967,23238,,763729.0,34.0,8860.055909634899,10655049.0,,2.9528557105952347,84000034.0,USA,119959.70588334635,
New Mexico,US,2021-02-28 05:30:29,34.8405,-106.2485,184888,3700,141833.0,39355.0,35.0,8817.504908602466,2669565.0,,2.0012115442862712,84000035.0,USA,127314.38758239227,
New York,US,2021-02-28 05:30:29,42.1657,-74.9481,1636040,47300,,1588542.0,36.0,8409.97697028323,37833195.0,,2.9032297498838657,84000036.0,USA,194479.5351349812,
North Carolina,US,2021-02-28 05:30:29,35.6301,-79.8064,858548,11212,,847336.0,37.0,8185.937488677627,10323021.0,,1.3059258189408165,84000037.0,USA,98426.18537380137,
North Dakota,US,2021-02-28 05:30:29,47.5289,-99.784,99780,1475,97678.0,627.0,38.0,13093.422844860394,1409086.0,,1.4782521547404288,84000038.0,USA,184904.37785901933,
Northern Mariana Islands,US,2021-02-28 05:30:29,15.0979,145.6739,143,2,29.0,112.0,69.0,259.3210503409256,17572.0,,1.3986013986013983,580.0,MNP,31865.660815319887,
Ohio,US,2021-02-28 05:30:29,40.3888,-82.7649,966154,18664,907410.0,41507.0,39.0,8265.426765105953,9994327.0,,1.784084110814632,84000039.0,USA,85501.25330436048,
Oklahoma,US,2021-02-28 05:30:29,35.5653,-96.9289,424843,4379,406494.0,12929.0,40.0,10710.26297640291,3508631.0,,1.0332655343769024,84000040.0,USA,88669.61622918137,
Oregon,US,2021-02-28 05:30:29,44.572,-122.0709,155315,2208,,153107.0,41.0,3682.4249591664916,3564120.0,,1.4216270160641278,84000041.0,USA,84503.13521208175,
Pennsylvania,US,2021-02-28 05:30:29,40.5908,-77.2098,934080,23922,836727.0,70909.0,42.0,7276.455244571762,10378789.0,,2.565132024591774,84000042.0,USA,81071.69128172193,
Puerto Rico,US,2021-02-28 05:30:29,18.2208,-66.5901,100044,2032,90738.0,7274.0,72.0,3132.548077555333,1705348.0,,2.0311063132221823,630.0,PRI,53397.35115512006,
Rhode Island,US,2021-02-28 05:30:29,41.6809,-71.5118,125622,2502,,123120.0,44.0,11858.280605006226,2968641.0,,1.9916893537756128,84000044.0,USA,280229.4024416606,
South Carolina,US,2021-02-28 05:30:29,33.8569,-80.945,515072,8498,230793.0,275781.0,45.0,10003.896118525909,5000460.0,,1.6498664264413518,84000045.0,USA,97120.56253270234,
South Dakota,US,2021-02-28 05:30:29,44.2998,-99.4388,112293,1886,108497.0,1910.0,46.0,12693.365466241798,422027.0,,1.6795347884552019,84000046.0,USA,47705.047933723625,
Tennessee,US,2021-02-28 05:30:29,35.7478,-86.6923,773887,11393,748739.0,13755.0,47.0,11332.073249268506,6894853.0,,1.4721787547794445,84000047.0,USA,100961.74149318789,
Texas,US,2021-02-28 05:30:29,31.0545,-97.5635,2649363,43519,2417585.0,188259.0,48.0,9137.03225640911,19488683.0,,1.6426212640547937,84000048.0,USA,67211.90158008995,
Utah,US,2021-02-28 05:30:29,40.15,-111.8624,370770,1929,351396.0,17445.0,49.0,11565.029860029355,2847706.0,,0.5202686301480702,84000049.0,USA,88825.43065130609,
Vermont,US,2021-02-28 05:30:29,44.0459,-72.7107,15098,204,12436.0,2458.0,50.0,2419.593935149497,1059706.0,,1.3511723407073783,84000050.0,USA,169827.67324423988,
Virgin Islands,US,2021-02-28 05:30:29,18.3358,-64.8963,2646,25,2511.0,110.0,78.0,2466.718872357087,47871.0,,0.944822373393802,850.0,VIR,44627.475109072606,
Virginia,US,2021-02-28 05:30:29,37.7693,-78.17,574314,8382,,565932.0,51.0,6728.518793057575,5879000.0,,1.4594803539527157,84000051.0,USA,68876.88961854576,
Washington,US,2021-02-28 05:30:29,47.4009,-121.4905,339773,4956,,334817.0,53.0,4461.953700465653,5213424.0,,1.4586209027792083,84000053.0,USA,68463.52273104823,
West Virginia,US,2021-02-28 05:30:29,38.4912,-80.9545,131580,2297,121797.0,7486.0,54.0,7342.03165253743,2194388.0,,1.7457060343517252,84000054.0,USA,122444.64321286144,
Wisconsin,US,2021-02-28 05:30:29,44.2685,-89.6165,616886,7014,548884.0,60988.0,55.0,10594.984846543559,6886832.0,,1.1370010018058443,84000055.0,USA,118280.98008496106,
Wyoming,US,2021-02-28 05:30:29,42.756,-107.3025,54350,671,52998.0,681.0,56.0,9390.78269193222,636716.0,,1.234590616375345,84000056.0,USA,110014.01274105457,
