Province_State,Country_Region,Last_Update,Lat,Long_,Confirmed,Deaths,Recovered,Active,FIPS,Incident_Rate,Total_Test_Results,People_Hospitalized,Case_Fatality_Ratio,UID,ISO3,Testing_Rate,Hospitalization_Rate
Alabama,US,2021-04-28 04:30:34,32.3182,-86.9023,526707,10854,,,1.0,10742.14005794193,4451175.0,,2.0607282606838337,84000001.0,USA,90781.2982785679,
Alaska,US,2021-04-28 04:30:34,61.3707,-152.4044,67647,347,,,2.0,9247.141324183747,2072654.0,,0.5129569677886676,84000002.0,USA,283325.56438770005,
American Samoa,US,2021-04-28 04:30:34,-14.271,-170.132,0,0,,,60.0,0.0,2140.0,,,16.0,ASM,3846.084721698028,
Arizona,US,2021-04-28 04:30:34,33.7298,-111.4312,860169,17276,,,4.0,11817.590929830081,9095617.0,,2.008442526991789,84000004.0,USA,124961.81675973939,
Arkansas,US,2021-04-28 04:30:34,34.9697,-92.3731,334998,5725,,,5.0,11100.720921570784,2954376.0,,1.7089654266592635,84000005.0,USA,97898.20677552288,
California,US,2021-04-28 07:31:03,36.1162,-119.6816,3802358,60318,,,6.0,9457.187463231314,59327368.0,,1.6465132086883103,84000006.0,USA,150149.40566619093,
Colorado,US,2021-04-28 04:30:34,39.0598,-105.3111,505268,6264,,,8.0,8773.939281120023,7707850.0,,1.239738119176358,84000008.0,USA,133846.21208542987,
Connecticut,US,2021-04-28 04:30:34,41.5978,-72.7554,337340,8067,,,9.0,9461.790874058666,7956742.0,,2.3913559020572714,84000009.0,USA,223172.55244809182,
Delaware,US,2021-04-28 04:30:34,39.3185,-75.5071,103603,1617,,,10.0,10639.436249440316,1705418.0,,1.5607656148953215,84000010.0,USA,175136.68609642587,
Diamond Princess,US,2021-04-28 04:30:34,,,49,0,,,88888.0,,,,0.0,84088888.0,USA,,
District of Columbia,US,2021-04-28 04:30:34,38.8974,-77.0268,47471,1100,,,11.0,6726.329048996173,1491890.0,,2.3172041878199323,84000011.0,USA,211391.01861993427,
Florida,US,2021-04-28 04:30:34,27.7663,-81.6868,2217368,34958,,,12.0,10324.029947847857,27708458.0,,1.5765538241735246,84000012.0,USA,129010.1373343011,
Georgia,US,2021-04-28 04:30:34,33.0406,-83.6431,1095879,20027,,,13.0,10321.515870659008,8241770.0,,1.8274827786644328,84000013.0,USA,77624.95663966669,
Grand Princess,US,2021-04-28 04:30:34,,,103,3,,,99999.0,,,,2.9126213592233015,84099999.0,USA,,
Guam,US,2021-04-28 04:30:34,13.4443,144.7937,7939,136,,,66.0,4834.10359924252,142121.0,,1.7130620985010707,316.0,GUM,86538.30931199728,
Hawaii,US,2021-04-28 04:30:34,21.0943,-157.4983,33468,479,,,15.0,2363.772996429056,1416757.0,,1.4312178797657464,84000015.0,USA,100062.50565022828,
Idaho,US,2021-04-28 04:30:34,44.2405,-114.4788,187014,2040,,,16.0,10464.868373562238,703433.0,,1.0908274246847829,84000016.0,USA,39362.47422449659,
Illinois,US,2021-04-28 04:30:34,40.3495,-88.9861,1325726,24174,,,17.0,10461.243099945936,22318791.0,,1.8235857667674995,84000017.0,USA,176129.31085437525,
Indiana,US,2021-04-28 04:30:34,39.8494,-86.2583,716306,13293,,,18.0,10639.968782952545,9657616.0,,1.8557711369163457,84000018.0,USA,143453.68146817564,
Iowa,US,2021-04-28 04:30:34,42.0115,-93.2105,363530,5930,,,19.0,11522.089842697624,1420417.0,,1.6312271339366764,84000019.0,USA,45020.14218385012,
Kansas,US,2021-04-28 04:30:34,38.5266,-96.7265,309371,4964,,,20.0,10619.21234717576,1366299.0,,1.5922630110773148,84000020.0,USA,46898.446236828575,
Kentucky,US,2021-04-28 04:30:34,37.6681,-84.6701,441880,6476,,,21.0,9890.607481791976,4606578.0,,1.4655562596179958,84000021.0,USA,103109.11295432768,
Louisiana,US,2021-04-28 04:30:34,31.1695,-91.8678,456884,10352,,,22.0,9828.011307878991,6416334.0,,2.265782999623537,84000022.0,USA,138021.47395647128,
Maine,US,2021-04-28 04:30:34,44.6939,-69.3819,60430,777,,,23.0,4495.570639155133,2036713.0,,1.2857852060234982,84000023.0,USA,151517.24579158644,
Maryland,US,2021-04-28 04:30:34,39.0639,-76.8021,444491,8688,,,24.0,7352.2085191409415,9569000.0,,1.9545952561469184,84000024.0,USA,158278.30781649044,
Massachusetts,US,2021-04-28 04:30:34,42.2302,-71.5301,684630,17566,,,25.0,9932.966296859066,21016842.0,,2.5657654499510683,84000025.0,USA,304923.21874941513,
Michigan,US,2021-04-28 04:30:34,43.3266,-84.5361,923464,18563,,,26.0,9246.793060118916,12697740.0,,2.0101487442932258,84000026.0,USA,127144.5060242677,
Minnesota,US,2021-04-28 04:30:34,45.6945,-93.9002,570518,7169,,,27.0,10116.227441790528,8429176.0,,1.2565773560168128,84000027.0,USA,149463.22738788632,
Mississippi,US,2021-04-28 04:30:34,32.7416,-89.6787,311159,7188,,,28.0,10455.088102107791,1873606.0,,2.310072985194065,84000028.0,USA,62954.038927486494,
Missouri,US,2021-04-28 04:30:34,38.4561,-92.2884,589372,9116,,,29.0,9602.915097333931,5233408.0,,1.5467310968284886,84000029.0,USA,85270.37710259086,
Montana,US,2021-04-28 04:30:34,46.9219,-110.4544,108287,1566,,,30.0,10131.851516404715,1293977.0,,1.4461569717509952,84000030.0,USA,121070.6994343072,
Nebraska,US,2021-04-28 04:30:34,41.1254,-98.2681,219090,2242,,,31.0,11325.945715691829,2809868.0,,1.0233237482313204,84000031.0,USA,145257.2570005914,
Nevada,US,2021-04-28 04:30:34,38.3135,-117.0554,314085,5444,,,32.0,10197.048461181836,3155257.0,,1.733288759412261,84000032.0,USA,102438.22066155089,
New Hampshire,US,2021-04-28 04:30:34,43.4525,-71.5639,94203,1294,,,33.0,6928.163411195467,1830161.0,,1.3736292899376878,84000033.0,USA,134599.2641083289,
New Jersey,US,2021-04-28 04:30:34,40.2989,-74.521,991010,25460,,,34.0,11157.270898280716,13374000.0,,2.5690961746097414,84000034.0,USA,150570.97405031868,
New Mexico,US,2021-04-28 04:30:34,34.8405,-106.2485,196997,4039,,,35.0,9394.995967720784,3235952.0,,2.0502850297212647,84000035.0,USA,154325.98461772516,
New York,US,2021-04-28 04:30:34,42.1657,-74.9481,2037414,51914,,,36.0,10473.218759280113,50488049.0,,2.5579975400188677,84000036.0,USA,259531.1418819413,
North Carolina,US,2021-04-28 04:30:34,35.6301,-79.8064,963771,12583,,,37.0,9189.199857667043,11244538.0,,1.3056006042929285,84000037.0,USA,107212.50897685412,
North Dakota,US,2021-04-28 04:30:34,47.5289,-99.784,106998,1517,,,38.0,14040.589873264906,1512817.0,,1.4177835099721492,84000038.0,USA,198516.2624563356,
Northern Mariana Islands,US,2021-04-28 04:30:34,15.0979,145.6739,164,2,,,69.0,297.4031626287538,17542.0,,1.2195121951219512,580.0,MNP,31811.25779776585,
Ohio,US,2021-04-28 04:30:34,40.3888,-82.7649,1067262,19789,,,39.0,9130.403538339137,12277499.0,,1.7978715629339377,84000039.0,USA,105033.7408354792,
Oklahoma,US,2021-04-28 04:30:34,35.5653,-96.9289,447393,6716,,,40.0,11306.451323499718,3977501.0,,1.501141054956157,84000040.0,USA,100518.83119689276,
Oregon,US,2021-04-28 04:30:34,44.572,-122.0709,182040,2488,,,41.0,4316.058587816167,4618728.0,,1.3667325862447814,84000041.0,USA,109507.25471977034,
Pennsylvania,US,2021-04-28 04:30:34,40.5908,-77.2098,1144960,26068,,,42.0,8914.552262152389,12849060.0,,2.282429637937682,84000042.0,USA,100367.68505268986,
Puerto Rico,US,2021-04-28 04:30:34,18.2208,-66.5901,130361,2285,,,72.0,4081.8249963834974,2048049.0,,1.752824847922308,630.0,PRI,64127.90329943946,
Rhode Island,US,2021-04-28 04:30:34,41.6809,-71.5118,147220,2664,,,44.0,13897.056810662276,3948283.0,,1.8095367477244941,84000044.0,USA,372704.20564849937,
South Carolina,US,2021-04-28 04:30:34,33.8569,-80.945,575956,9435,,,45.0,11186.404993557617,6076540.0,,1.6381459694837799,84000045.0,USA,118020.53872093107,
South Dakota,US,2021-04-28 04:30:34,44.2998,-99.4388,122228,1961,,,46.0,13816.397052423588,774014.0,,1.604378702097719,84000046.0,USA,87492.92100119933,
Tennessee,US,2021-04-28 04:30:34,35.7478,-86.6923,844246,12163,,,47.0,12362.344260081822,7597249.0,,1.4406938262070534,84000047.0,USA,111246.96778849096,
Texas,US,2021-04-28 04:30:34,31.0545,-97.5635,2882423,50027,,,48.0,9940.80159178471,22776539.0,,1.7355884268200747,84000048.0,USA,78550.94659824269,
Utah,US,2021-04-28 04:30:34,40.15,-111.8624,396004,2186,,,49.0,12352.126883758303,3260938.0,,0.5520146261148877,84000049.0,USA,101714.93201096207,
Vermont,US,2021-04-28 04:30:34,44.0459,-72.7107,22675,245,,,50.0,3633.8781613137407,1545018.0,,1.0804851157662625,84000050.0,USA,247603.40326512165,
Virgin Islands,US,2021-04-28 04:30:34,18.3358,-64.8963,3093,27,,,78.0,2883.432151247343,100455.0,,0.8729388942774006,850.0,VIR,93648.61841369279,
Virginia,US,2021-04-28 04:30:34,37.7693,-78.17,656020,10722,,,51.0,7685.765798189894,6962313.0,,1.6344013902015182,84000051.0,USA,81568.71304486581,
Washington,US,2021-04-28 04:30:34,47.4009,-121.4905,398509,5462,,,53.0,5233.284302221975,6447093.0,,1.370608944841898,84000053.0,USA,84664.26251819954,
West Virginia,US,2021-04-28 04:30:34,38.4912,-80.9545,151848,2662,,,54.0,8472.965666320899,2710364.0,,1.7530688583320162,84000054.0,USA,151235.5850273443,
Wisconsin,US,2021-04-28 04:30:34,44.2685,-89.6165,657872,7494,,,55.0,11298.917256940998,8182074.0,,1.1391273682418463,84000055.0,USA,140526.69381911412,
Wyoming,US,2021-04-28 04:30:34,42.756,-107.3025,57883,707,,,56.0,10001.226762780363,717274.0,,1.2214294352400532,84000056.0,USA,123933.10514393727,
