Province_State,Country_Region,Last_Update,Lat,Long_,Confirmed,Deaths,Recovered,Active,FIPS,Incident_Rate,Total_Test_Results,People_Hospitalized,Case_Fatality_Ratio,UID,ISO3,Testing_Rate,Hospitalization_Rate
Alabama,US,2021-06-18 04:30:52,32.3182,-86.9023,548323,11288,,,1.0,11182.996358489429,4713684.0,,2.058640618759381,84000001.0,USA,96135.14480893542,
Alaska,US,2021-06-18 04:30:52,61.3707,-152.4044,70770,373,,,2.0,9674.046025876742,2330161.0,,0.5270594884838208,84000002.0,USA,318525.99635019037,
American Samoa,US,2021-06-18 04:30:52,-14.271,-170.132,0,0,,,60.0,0.0,2140.0,,,16.0,ASM,3846.084721698028,
Arizona,US,2021-06-18 04:30:52,33.7298,-111.4312,888337,17809,,,4.0,12204.582208650234,9969321.0,,2.0047572036288033,84000004.0,USA,136965.3607909196,
Arkansas,US,2021-06-18 04:30:52,34.9697,-92.3731,344945,5869,,,5.0,11430.331459564637,3091945.0,,1.7014306628592963,84000005.0,USA,102456.78645796744,
California,US,2021-06-18 04:30:52,36.1162,-119.6816,3874653,62679,,,6.0,9632.85209237658,67989072.0,,1.6619401106733989,84000006.0,USA,172070.9867425075,
Colorado,US,2021-06-18 04:30:52,39.0598,-105.3111,552726,6713,,,8.0,9598.0437373757,8856941.0,,1.2145258229213027,84000008.0,USA,153800.08738028622,
Connecticut,US,2021-06-18 04:30:52,41.5978,-72.7554,348595,8266,,,9.0,9777.47373493354,8641055.0,,2.371233092844132,84000009.0,USA,242366.32282338,
Delaware,US,2021-06-18 04:30:52,39.3185,-75.5071,109470,1679,,,10.0,11241.943633159575,1876983.0,,1.5337535397825888,84000010.0,USA,192755.43150085647,
Diamond Princess,US,2021-06-18 04:30:52,,,49,0,,,88888.0,,,,0.0,84088888.0,USA,,
District of Columbia,US,2021-06-18 04:30:52,38.8974,-77.0268,49232,1140,,,11.0,6975.85118788691,1652505.0,,2.3155671108222293,84000011.0,USA,234149.10966930172,
Florida,US,2021-06-18 04:30:52,27.7663,-81.6868,2344321,37265,,,12.0,10915.121085615305,30719534.0,,1.5895860677782607,84000012.0,USA,143029.6590371695,
Georgia,US,2021-06-18 04:30:52,33.0406,-83.6431,1130083,21258,,,13.0,10643.665605109642,8963175.0,,1.8811007687045995,84000013.0,USA,84419.49614327318,
Grand Princess,US,2021-06-18 04:30:52,,,103,3,,,99999.0,,,,2.9126213592233015,84099999.0,USA,,
Guam,US,2021-06-18 04:30:52,13.4443,144.7937,8266,139,,,66.0,5033.215814502921,161265.0,,1.6815872247761916,316.0,GUM,98195.20303965805,
Hawaii,US,2021-06-18 04:30:52,21.0943,-157.4983,37170,507,,,15.0,2625.237309587307,1690786.0,,1.3640032284100079,84000015.0,USA,119416.58568006149,
Idaho,US,2021-06-18 04:30:52,44.2405,-114.4788,194006,2122,,,16.0,10856.124427483051,789570.0,,1.0937806047235652,84000016.0,USA,44182.50035673017,
Illinois,US,2021-06-18 04:30:52,40.3495,-88.9861,1388586,25552,,,17.0,10957.501688194618,25271173.0,,1.840239392444446,84000017.0,USA,199428.1090302649,
Indiana,US,2021-06-18 04:30:52,39.8494,-86.2583,750432,13764,,,18.0,11146.874455510137,10685055.0,,1.8341435333248048,84000018.0,USA,158715.20222381357,
Iowa,US,2021-06-18 04:30:52,42.0115,-93.2105,372910,6109,,,19.0,11819.389110225764,1484422.0,,1.6381968839666408,84000019.0,USA,47048.78180198855,
Kansas,US,2021-06-18 04:30:52,38.5266,-96.7265,317440,5128,,,20.0,10896.182148577187,1434126.0,,1.6154233870967742,84000020.0,USA,49226.61958168601,
Kentucky,US,2021-06-18 04:30:52,37.6681,-84.6701,463154,7178,,,21.0,10366.783782071783,5419296.0,,1.5498084870259137,84000021.0,USA,121300.19363547867,
Louisiana,US,2021-06-18 04:30:52,31.1695,-91.8678,477127,10677,,,22.0,10263.457576309038,7009584.0,,2.23776897974753,84000022.0,USA,150782.84819675813,
Maine,US,2021-06-18 04:30:52,44.6939,-69.3819,68720,854,,,23.0,5112.288835392036,2309769.0,,1.2427240977881258,84000023.0,USA,171830.708251377,
Maryland,US,2021-06-18 04:30:52,39.0639,-76.8021,461549,9698,,,24.0,7634.3604028000145,10652730.0,,2.1011853562676985,84000024.0,USA,176204.00021172143,
Massachusetts,US,2021-06-18 04:30:52,42.2302,-71.5301,709187,17957,,,25.0,10289.251959701722,23444629.0,,2.5320543100761856,84000025.0,USA,340146.8087863001,
Michigan,US,2021-06-18 04:30:52,43.3266,-84.5361,997993,20848,,,26.0,9993.06388386256,14049503.0,,2.0889926081645864,84000026.0,USA,140679.9256262506,
Minnesota,US,2021-06-18 04:30:52,45.6945,-93.9002,604184,7620,,,27.0,10713.181285587429,9300128.0,,1.2612051957681767,84000027.0,USA,164906.64639111204,
Mississippi,US,2021-06-18 04:30:52,32.7416,-89.6787,319704,7369,,,28.0,10742.204103356384,1965185.0,,2.304944573730701,84000028.0,USA,66031.13620991423,
Missouri,US,2021-06-18 04:30:52,38.4561,-92.2884,615471,9645,,,29.0,10028.158375136949,5634280.0,,1.5670925193875909,84000029.0,USA,91801.97307406297,
Montana,US,2021-06-18 04:30:52,46.9219,-110.4544,113092,1651,,,30.0,10581.430381239135,1433876.0,,1.4598733774272274,84000030.0,USA,134160.32141380155,
Nebraska,US,2021-06-18 04:30:52,41.1254,-98.2681,223960,2258,,,31.0,11577.702325465982,3023637.0,,1.0082157528130022,84000031.0,USA,156308.1314800187,
Nevada,US,2021-06-18 04:30:52,38.3135,-117.0554,328490,5642,,,32.0,10664.7195791382,3458598.0,,1.7175560899875186,84000032.0,USA,112286.45562107893,
New Hampshire,US,2021-06-18 04:30:52,43.4525,-71.5639,99225,1366,,,33.0,7297.506602505974,2034547.0,,1.3766691861929956,84000033.0,USA,149630.8406712897,
New Jersey,US,2021-06-18 04:30:52,40.2989,-74.521,1020564,26364,,,34.0,11490.004154380847,14527071.0,,2.5832774818629702,84000034.0,USA,163552.8062335978,
New Mexico,US,2021-06-18 04:30:52,34.8405,-106.2485,204577,4310,,,35.0,9756.494211020548,3586230.0,,2.1067861978619296,84000035.0,USA,171031.11412518614,
New York,US,2021-06-18 04:30:52,42.1657,-74.9481,2110756,53380,,,36.0,10850.229425861928,57618652.0,,2.5388533776523667,84000036.0,USA,296185.6289447469,
North Carolina,US,2021-06-18 04:30:52,35.6301,-79.8064,1009893,13320,,,37.0,9628.956060992648,12269048.0,,1.3189516117053983,84000037.0,USA,116980.83272407047,
North Dakota,US,2021-06-18 04:30:52,47.5289,-99.784,110520,1554,,,38.0,14502.75699352546,1575961.0,,1.4060803474484256,84000038.0,USA,206802.20244547032,
Northern Mariana Islands,US,2021-06-18 04:30:52,15.0979,145.6739,183,2,,,69.0,331.8584070796461,17542.0,,1.0928961748633879,580.0,MNP,31811.25779776585,
Ohio,US,2021-06-18 04:30:52,40.3888,-82.7649,1108146,20468,,,39.0,9480.165282185968,13431884.0,,1.815825712496368,84000039.0,USA,114909.47977175318,
Oklahoma,US,2021-06-18 04:30:52,35.5653,-96.9289,455354,7354,,,40.0,11507.64056648381,4109287.0,,1.6150072251479068,84000040.0,USA,103849.30796814027,
Oregon,US,2021-06-18 04:30:52,44.572,-122.0709,205988,2745,,,41.0,4883.851221638523,5288743.0,,1.3326018991397557,84000041.0,USA,125392.90619590553,
Pennsylvania,US,2021-06-18 04:30:52,40.5908,-77.2098,1214395,27546,,,42.0,9485.986904066236,14334841.0,,2.268289971549619,84000042.0,USA,111973.54567325435,
Puerto Rico,US,2021-06-18 04:30:52,18.2208,-66.5901,139582,2539,,,72.0,4370.550215518456,2332275.0,,1.8190024501726585,630.0,PRI,73027.50357423097,
Rhode Island,US,2021-06-18 04:30:52,41.6809,-71.5118,152359,2724,,,44.0,14382.160566605718,4400637.0,,1.7878825668322842,84000044.0,USA,415404.8525479039,
South Carolina,US,2021-06-18 04:30:52,33.8569,-80.945,595361,9790,,,45.0,11563.295222845938,6578558.0,,1.6443804683209011,84000045.0,USA,127770.8958003882,
South Dakota,US,2021-06-18 04:30:52,44.2998,-99.4388,124393,2027,,,46.0,14061.12411675007,816266.0,,1.6295129147138503,84000046.0,USA,92268.99856328825,
Tennessee,US,2021-06-18 04:30:52,35.7478,-86.6923,865750,12506,,,47.0,12677.22860773499,8097390.0,,1.444527866012128,84000047.0,USA,118570.56212068985,
Texas,US,2021-06-18 04:30:52,31.0545,-97.5635,2982619,52040,,,48.0,10286.354120435244,25114553.0,,1.744775313239807,84000048.0,USA,86614.20910094093,
Utah,US,2021-06-18 04:30:52,40.15,-111.8624,410746,2324,,,49.0,12811.958235260725,3516131.0,,0.5657997886771874,84000049.0,USA,109674.89280895132,
Vermont,US,2021-06-18 04:30:52,44.0459,-72.7107,24357,256,,,50.0,3903.4341951540814,1715728.0,,1.0510325573757031,84000050.0,USA,274961.2573298568,
Virgin Islands,US,2021-06-18 04:30:52,18.3358,-64.8963,3747,30,,,78.0,3493.120035798188,123542.0,,0.800640512409928,850.0,VIR,115171.34653391506,
Virginia,US,2021-06-18 04:30:52,37.7693,-78.17,678392,11336,,,51.0,7947.870539565315,7578332.0,,1.6710102713475394,84000051.0,USA,88785.83715881837,
Washington,US,2021-06-18 04:30:52,47.4009,-121.4905,446124,5810,,,53.0,5858.572142773379,7368939.0,,1.3023285005962468,84000053.0,USA,96770.09250162805,
West Virginia,US,2021-06-18 04:30:52,38.4912,-80.9545,163382,2863,,,54.0,9116.551265046895,2991453.0,,1.752335018545495,84000054.0,USA,166920.06849884524,
Wisconsin,US,2021-06-18 04:30:52,44.2685,-89.6165,676551,8046,,,55.0,11619.728106836421,8898425.0,,1.189267327961972,84000055.0,USA,152829.98484826105,
Wyoming,US,2021-06-18 04:30:52,42.756,-107.3025,61425,734,,,56.0,10613.225885040232,774566.0,,1.1949531949531949,84000056.0,USA,133832.21686401422,
