Province_State,Country_Region,Last_Update,Lat,Long_,Confirmed,Deaths,Recovered,Active,FIPS,Incident_Rate,People_Tested,People_Hospitalized,Mortality_Rate,UID,ISO3,Testing_Rate,Hospitalization_Rate
Alabama,US,2020-06-14 03:33:28,32.3182,-86.9023,25364,773,13508,10320.0,1,501.7350966769559,430225,2241,3.142148693142555,84000001,USA,8774.39868167324,9.109385797325311
Alaska,US,2020-06-14 03:33:28,61.3707,-152.4044,666,12,405,236.0,2,89.26313487208579,71803,,1.8376722817764166,84000002,USA,9815.254017182811,
American Samoa,US,2020-06-14 03:33:28,-14.270999999999999,-170.132,0,0,,0.0,60,0.0,174,,,16,ASM,312.7190381193724,
Arizona,US,2020-06-14 03:33:28,33.7298,-111.4312,34660,1189,6209,27262.0,4,476.18282178026703,460476,3692,3.430467397576457,84000004,USA,4511.74293491559,10.65204847085978
Arkansas,US,2020-06-14 03:33:28,34.9697,-92.3731,12095,177,7607,4311.0,5,400.78812275416163,187017,979,1.4634146341463414,84000005,USA,6197.122145772224,8.09425382389417
California,US,2020-06-14 03:33:28,36.1162,-119.6816,150591,4985,,144942.0,6,379.67491730343795,2724393,,3.383593968723753,84000006,USA,6895.063838853106,
Colorado,US,2020-06-14 03:33:28,39.0598,-105.3111,29017,1597,4184,23221.0,8,503.617460498276,236461,5234,5.5065167919453835,84000008,USA,4106.126761150364,18.047031239224882
Connecticut,US,2020-06-14 03:33:28,41.5978,-72.7554,44994,4186,7611,33197.0,9,1262.0021894450574,344254,9912,9.303462683913411,84000009,USA,9655.71635607456,22.02960394719296
Delaware,US,2020-06-14 03:33:28,39.3185,-75.5071,10229,540,6116,3694.0,10,1050.4598650186288,80099,,4.096197086714244,84000010,USA,8225.709720219684,
Diamond Princess,US,2020-06-14 03:33:28,,,49,0,,49.0,88888,,,,0.0,84088888,USA,,
District of Columbia,US,2020-06-14 03:33:28,38.8974,-77.0268,9709,511,1143,8055.0,11,1375.7015596196381,63036,,5.2631578947368425,84000011,USA,8931.787363496087,
Florida,US,2020-06-14 03:33:28,27.7663,-81.6868,73552,2925,,70627.0,12,342.4569357563136,2001144,12155,3.9767783336958886,84000012,USA,9317.294461702366,16.525723297802916
Georgia,US,2020-06-14 03:33:28,33.0406,-83.6431,56804,2447,,54357.0,13,535.0074118738605,599680,9224,4.307795225688332,84000013,USA,5648.074867131129,16.238293077952257
Grand Princess,US,2020-06-14 03:33:28,,,103,3,,100.0,99999,,,,2.912621359223301,84099999,USA,,
Guam,US,2020-06-14 03:33:28,13.4443,144.7937,183,5,168,10.0,66,111.42977184297536,8543,,2.73224043715847,316,GUM,5201.882736910046,
Hawaii,US,2020-06-14 03:33:28,21.0943,-157.4983,723,17,627,79.0,15,51.06393798309452,59338,87,2.351313969571231,84000015,USA,4190.915562988745,12.033195020746888
Idaho,US,2020-06-14 03:33:28,44.2405,-114.4788,3353,87,2776,490.0,16,187.62607963336532,62658,265,2.594691321204891,84000016,USA,3506.1959134110957,7.903370116313749
Illinois,US,2020-06-14 03:33:28,40.3495,-88.9861,131871,6289,,125582.0,17,1040.6633742695703,1169806,,4.7690546063956445,84000017,USA,9231.55401263954,
Indiana,US,2020-06-14 03:33:28,39.8494,-86.2583,39543,2351,28241,8889.0,18,587.3694839695501,340637,6349,6.102217838808386,84000018,USA,5059.802718836093,16.05593910426624
Iowa,US,2020-06-14 03:33:28,42.0115,-93.2105,23717,650,14326,8741.0,19,751.7107385890012,219608,,2.7406501665472023,84000019,USA,6960.479482230188,
Kansas,US,2020-06-14 03:33:28,38.5266,-96.7265,11020,245,667,10108.0,20,378.26337977986583,129152,973,2.2232304900181488,84000020,USA,4433.164430610638,8.82940108892922
Kentucky,US,2020-06-14 03:33:28,37.6681,-84.6701,12445,499,3409,8537.0,21,278.55664458880494,294585,2433,4.009642426677381,84000021,USA,6593.701016166581,19.550020088388912
Louisiana,US,2020-06-14 03:33:28,31.1695,-91.8678,46283,3004,33904,9375.0,22,995.5915448178603,504383,,6.490504072769699,84000022,USA,10849.760174359199,
Maine,US,2020-06-14 03:33:28,44.6939,-69.3819,2757,100,2152,505.0,23,205.10157623946222,68350,313,3.6271309394269133,84000023,USA,5084.763415294611,11.352919840406239
Maryland,US,2020-06-14 03:33:28,39.0639,-76.8021,61305,2926,4536,53843.0,24,1014.0298527212819,408758,10053,4.772857026343692,84000024,USA,6761.158380860383,16.398336187912893
Massachusetts,US,2020-06-14 03:33:28,42.2302,-71.5301,105395,7576,,97819.0,25,1529.125195883121,703596,10772,7.18819678352863,84000025,USA,10208.134838679069,10.22059870012809
Michigan,US,2020-06-14 03:33:28,43.3266,-84.5361,65836,6013,44964,14859.0,26,659.2264212854956,799483,,9.1333009295826,84000026,USA,8005.351433388903,
Minnesota,US,2020-06-14 03:33:28,45.6945,-93.9002,30172,1314,25620,3238.0,27,534.9994467724135,407992,3581,4.355031154712979,84000027,USA,7234.37273921419,11.868619912501657
Mississippi,US,2020-06-14 03:33:28,32.7416,-89.6787,19348,889,13356,5103.0,28,650.1018598195185,213885,2644,4.59479015918958,84000028,USA,7186.636152961428,13.665495141616704
Missouri,US,2020-06-14 03:33:28,38.4561,-92.2884,16218,893,,15347.0,29,264.4756076975567,269796,,5.45219319862001,84000029,USA,4395.913076291893,
Montana,US,2020-06-14 03:33:28,46.9219,-110.4544,588,18,510,60.0,30,55.01610250210989,58004,77,3.061224489795918,84000030,USA,5427.132669272758,13.095238095238095
Nebraska,US,2020-06-14 03:33:28,41.1254,-98.2681,16640,215,9610,6815.0,31,860.2114962303713,134377,1067,1.2920673076923077,84000031,USA,6946.673090682007,6.412259615384615
Nevada,US,2020-06-14 03:33:28,38.3135,-117.0554,10997,462,627,9908.0,32,357.02737134093206,204880,,4.201145767027371,84000032,USA,6651.6111521624225,
New Hampshire,US,2020-06-14 03:33:28,43.4525,-71.5639,5299,318,3843,1138.0,33,389.715167414252,93956,503,6.001132289111153,84000033,USA,6909.997786294293,9.492357048499716
New Jersey,US,2020-06-14 03:33:28,40.2989,-74.521,167141,12621,28606,125378.0,34,1875.7198393639405,1078215,18707,7.575402899072657,84000034,USA,12139.067054408879,11.22835449116173
New Mexico,US,2020-06-14 03:33:28,34.8405,-106.2485,9621,431,3983,5207.0,35,458.8356990484203,255284,1625,4.479783806257146,84000035,USA,12174.764847300376,16.890136160482278
New York,US,2020-06-14 03:33:28,42.1657,-74.9481,382630,30637,68584,283251.0,36,1966.8892497368477,2872240,89995,8.048245040901131,84000036,USA,14764.597597324213,23.520110812011605
North Carolina,US,2020-06-14 03:33:28,35.6301,-79.8064,42845,1127,23653,18065.0,37,408.51122092462265,611690,,2.630411950052515,84000037,USA,5832.237804350156,
North Dakota,US,2020-06-14 03:33:28,47.5289,-99.78399999999999,3058,74,2630,354.0,38,401.2796859048214,85873,197,2.419882275997384,84000038,USA,11268.505712133658,6.442119032047089
Northern Mariana Islands,US,2020-06-14 03:33:28,15.0979,145.6739,30,2,19,9.0,69,54.40301755404033,7936,,6.666666666666667,580,MNP,14391.411576962135,
Ohio,US,2020-06-14 03:33:28,40.3888,-82.7649,40851,2389,,38295.0,39,349.47942955402897,538898,6864,6.256884776382463,84000039,USA,4610.260841296593,16.80252625394727
Oklahoma,US,2020-06-14 03:33:28,35.5653,-96.9289,8073,359,6495,1219.0,40,204.01969081906336,246439,1111,4.446921838226186,84000040,USA,6227.9708393111805,13.76192245757463
Oregon,US,2020-06-14 03:33:28,44.571999999999996,-122.0709,5377,173,2396,2808.0,41,127.48542642654105,166189,875,3.217407476287893,84000041,USA,3940.2409396318453,16.27301469220755
Pennsylvania,US,2020-06-14 03:33:28,40.5908,-77.2098,82993,6221,58061,18672.0,42,647.8993225193367,675374,,7.488184799382716,84000042,USA,4491.887940225539,
Puerto Rico,US,2020-06-14 03:33:28,18.2208,-66.5901,5690,146,,5544.0,72,193.97233524964818,191091,,2.5659050966608086,630,PRI,5983.384757587922,
Rhode Island,US,2020-06-14 03:33:28,41.6809,-71.5118,15947,906,1435,13679.0,44,1505.34142752093,191518,1853,5.223553019376685,84000044,USA,18078.634195519753,11.619740390042015
South Carolina,US,2020-06-14 03:33:28,33.8569,-80.945,17955,599,8682,8674.0,45,348.72785709208165,241906,1988,3.3361180729601783,84000045,USA,4698.377109313122,11.072124756335283
South Dakota,US,2020-06-14 03:33:28,44.2998,-99.4388,5833,75,4828,930.0,46,659.3500998689891,64513,531,1.2857877593005314,84000046,USA,7292.414365309119,9.103377335847762
Tennessee,US,2020-06-14 03:33:28,35.7478,-86.6923,29549,472,19731,9346.0,47,432.68775989599914,601362,2073,1.5973467799248706,84000047,USA,8805.77943979755,7.015465836407324
Texas,US,2020-06-14 03:33:28,31.0545,-97.5635,87192,2057,56535,28409.0,48,299.7494713128392,1260319,,2.2677328424322614,84000048,USA,4346.544945470014,
Utah,US,2020-06-14 03:33:28,40.15,-111.8624,13981,139,8114,5728.0,49,436.0942969309018,262782,1012,0.9942064230026465,84000049,USA,8196.676313289194,7.238394964594807
Vermont,US,2020-06-14 03:33:28,44.0459,-72.7107,1125,55,908,162.0,50,180.29163975647006,49933,,4.888888888888889,84000050,USA,8002.224398186507,
Virgin Islands,US,2020-06-14 03:33:28,18.3358,-64.8963,72,6,64,2.0,78,67.12160196890032,2356,,8.333333333333334,850,VIR,2196.367975537905,
Virginia,US,2020-06-14 03:33:28,37.7693,-78.17,53869,1541,7131,45197.0,51,631.1156943122029,459993,8090,2.8606434127234586,84000051,USA,5389.162627369232,15.017913827990125
Washington,US,2020-06-14 03:33:28,47.4009,-121.4905,25825,1207,,24325.0,53,335.3691246876351,439862,3817,4.749784634662072,84000053,USA,5776.338551309914,14.946354452188896
West Virginia,US,2020-06-14 03:33:28,38.4912,-80.9545,2274,88,1568,618.0,54,126.88691273651101,127517,,3.8698328935795954,84000054,USA,7115.320339235565,
Wisconsin,US,2020-06-14 03:33:28,44.2685,-89.6165,22518,691,16231,5596.0,55,386.7454744871303,410917,3035,3.0686561861621815,84000055,USA,7057.4780237955465,13.478106403765876
Wyoming,US,2020-06-14 03:33:28,42.756,-107.3025,1050,18,833,199.0,56,181.42266470154243,33055,93,1.7142857142857142,84000056,USA,5711.358268294748,8.857142857142858
