Province_State,Country_Region,Last_Update,Lat,Long_,Confirmed,Deaths,Recovered,Active,FIPS,Incident_Rate,Total_Test_Results,People_Hospitalized,Case_Fatality_Ratio,UID,ISO3,Testing_Rate,Hospitalization_Rate
Alabama,US,2021-08-17 04:30:48,32.3182,-86.9023,637363,11799,,,1.0,12998.958840019292,5166816.0,,1.8512213605119845,84000001.0,USA,105376.72961554582,
Alaska,US,2021-08-17 04:30:48,61.3707,-152.4044,80885,403,,,2.0,11056.736085955068,2585595.0,,0.498238239475799,84000002.0,USA,353443.0554511342,
American Samoa,US,2021-08-17 04:30:48,-14.270999999999999,-170.132,0,0,,,60.0,0.0,2140.0,,,16.0,ASM,3846.084721698028,
Arizona,US,2021-08-17 04:30:48,33.7298,-111.4312,967862,18464,,,4.0,13297.151132541629,11170853.0,,1.9077099834480533,84000004.0,USA,153472.83044525568,
Arkansas,US,2021-08-17 04:30:48,34.9697,-92.3731,420663,6498,,,5.0,13939.374459043727,3466830.0,,1.5447044308627096,84000005.0,USA,114879.23006265482,
California,US,2021-08-17 07:31:06,36.1162,-119.6816,4244522,64267,,,6.0,10498.946110928762,77103192.0,,1.5595052221753765,84000006.0,USA,195137.5704677512,
Colorado,US,2021-08-17 04:30:48,39.0598,-105.3111,592372,7041,,,8.0,10286.493424946031,9727047.0,,1.1886112105231172,84000008.0,USA,168909.40998163485,
Connecticut,US,2021-08-17 04:30:48,41.5978,-72.7554,363417,8307,,,9.0,10193.20464243131,9264240.0,,2.2858039112094373,84000009.0,USA,259845.56082020892,
Delaware,US,2021-08-17 04:30:48,39.3185,-75.5071,114770,1838,,,10.0,11786.223355967155,1998396.0,,1.6014637971595365,84000010.0,USA,205223.8530075049,
Diamond Princess,US,2021-08-17 04:30:48,,,49,0,,,88888.0,,,,0.0,84088888.0,USA,,
District of Columbia,US,2021-08-17 04:30:48,38.8974,-77.0268,52777,1150,,,11.0,7478.154414671505,1777003.0,,2.1789794796975954,84000011.0,USA,251789.6589297328,
Florida,US,2021-08-17 04:30:48,27.7663,-81.6868,2933429,41123,,,12.0,13598.960635377927,35262336.0,,1.3957378740864073,84000012.0,USA,164180.8725006736,
Georgia,US,2021-08-17 04:30:48,33.0406,-83.6431,1272014,22014,,,13.0,11980.44007477144,9811889.0,,1.7306413294193304,84000013.0,USA,92413.09308294488,
Grand Princess,US,2021-08-17 04:30:48,,,103,3,,,99999.0,,,,2.912621359223301,84099999.0,USA,,
Guam,US,2021-08-17 04:30:48,13.4443,144.7937,9018,143,,,66.0,5491.113019016129,184787.0,,1.5857174539809271,316.0,GUM,112517.88660955132,
Hawaii,US,2021-08-17 04:30:48,21.0943,-157.4983,51739,552,,,15.0,3654.214505266013,1967074.0,,1.0668934459498638,84000015.0,USA,138930.21403064686,
Idaho,US,2021-08-17 04:30:48,44.2405,-114.4788,209411,2251,,,16.0,11718.152389532555,846688.0,,1.0749196556054839,84000016.0,USA,47378.69075831041,
Illinois,US,2021-08-17 04:30:48,40.3495,-88.9861,1466813,26057,,,17.0,11575.392360734893,27609781.0,,1.7764363964595349,84000017.0,USA,217883.2939638273,
Indiana,US,2021-08-17 04:30:48,39.8494,-86.2583,803403,14144,,,18.0,11933.702691489983,11558469.0,,1.7605112253750608,84000018.0,USA,171688.84434686395,
Iowa,US,2021-08-17 04:30:48,42.0115,-93.2105,389223,6210,,,19.0,12274.624651750992,1541795.0,,1.6035199975211285,84000019.0,USA,48867.220061678505,
Kansas,US,2021-08-17 04:30:48,38.5266,-96.7265,351356,5400,,,20.0,12060.354633932351,1551046.0,,1.5369027425175603,84000020.0,USA,53239.918525775116,
Kentucky,US,2021-08-17 04:30:48,37.6681,-84.6701,518987,7451,,,21.0,11616.494761366825,5850003.0,,1.4356814332536267,84000021.0,USA,130940.71567010385,
Louisiana,US,2021-08-17 04:30:48,31.1695,-91.8678,628146,11584,,,22.0,13512.020536939255,8003786.0,,1.844157250066068,84000022.0,USA,172169.08299227714,
Maine,US,2021-08-17 04:30:48,44.6939,-69.3819,72522,904,,,23.0,5395.131125149902,2465944.0,,1.2465182978958111,84000023.0,USA,183449.03928844558,
Maryland,US,2021-08-17 04:30:48,39.0639,-76.8021,480718,9896,,,24.0,7951.4297812653,11604478.0,,2.0585873630694085,84000024.0,USA,191946.61311878896,
Massachusetts,US,2021-08-17 04:30:48,42.2302,-71.5301,737579,18147,,,25.0,10701.177786937491,25188229.0,,2.460346620497601,84000025.0,USA,365443.8597995532,
Michigan,US,2021-08-17 04:30:48,43.3266,-84.5361,1032520,21304,,,26.0,10338.788269422505,14866138.0,,2.0633014372602947,84000026.0,USA,148857.0227850464,
Minnesota,US,2021-08-17 04:30:48,45.6945,-93.9002,626310,7827,,,27.0,11105.511849000075,9935960.0,,1.249700627484792,84000027.0,USA,176180.99904390925,
Mississippi,US,2021-08-17 04:30:48,32.7416,-89.6787,388986,7813,,,28.0,13070.11174507728,2119900.0,,2.0085555778357063,84000028.0,USA,71229.6326561607,
Missouri,US,2021-08-17 04:30:48,38.4561,-92.2884,728930,10479,,,29.0,11876.799206442827,6321525.0,,1.4375865995363066,84000029.0,USA,102999.57897673098,
Montana,US,2021-08-17 04:30:48,46.9219,-110.4544,120325,1736,,,30.0,11258.184580895193,1558880.0,,1.4427591938499895,84000030.0,USA,145856.2956947093,
Nebraska,US,2021-08-17 04:30:48,41.1254,-98.2681,232399,2285,,,31.0,12013.959826468874,3222243.0,,0.9832228193752984,84000031.0,USA,166575.14857258654,
Nevada,US,2021-08-17 04:30:48,38.3135,-117.0554,373649,6190,,,32.0,12130.846619456936,,,1.656634970252831,84000032.0,USA,,
New Hampshire,US,2021-08-17 04:30:48,43.4525,-71.5639,103462,1395,,,33.0,7609.116937349187,2173748.0,,1.3483211227310512,84000033.0,USA,159868.38379626258,
New Jersey,US,2021-08-17 04:30:48,40.2989,-74.521,1062238,26696,,,34.0,11959.1902447482,14977445.0,,2.5131844275953217,84000034.0,USA,168623.33501084757,
New Mexico,US,2021-08-17 04:30:48,34.8405,-106.2485,220340,4451,,,35.0,10508.24840747624,3928964.0,,2.020059907415812,84000035.0,USA,187376.46226754785,
New York,US,2021-08-17 04:30:48,42.1657,-74.9481,2209767,53889,,,36.0,11359.190227434454,63108205.0,,2.4481766629694444,84000036.0,USA,324404.38539761433,
North Carolina,US,2021-08-17 04:30:48,35.6301,-79.8064,1122412,13880,,,37.0,10701.783090219338,13374366.0,,1.2366225592741351,84000037.0,USA,127519.6308496385,
North Dakota,US,2021-08-17 04:30:48,47.5289,-99.78399999999999,113404,1576,,,38.0,14881.203891546882,1628741.0,,1.389721702938168,84000038.0,USA,213728.14810343515,
Northern Mariana Islands,US,2021-08-17 04:30:48,15.0979,145.6739,183,2,,,69.0,331.8584070796461,17542.0,,1.092896174863388,580.0,MNP,31811.25779776585,
Ohio,US,2021-08-17 04:30:48,40.3888,-82.7649,1161573,20930,,,39.0,9937.232122233534,14438670.0,,1.7746624620234803,84000039.0,USA,123522.51242610635,
Oklahoma,US,2021-08-17 04:30:48,35.5653,-96.9289,515801,7594,,,40.0,13035.248426132006,4277559.0,,1.4722732216494343,84000040.0,USA,108101.85366534148,
Oregon,US,2021-08-17 04:30:48,44.571999999999996,-122.0709,242843,2949,,,41.0,5757.661039557471,5925733.0,,1.2143648365404809,84000041.0,USA,140495.55484374677,
Pennsylvania,US,2021-08-17 04:30:48,40.5908,-77.2098,1256689,27966,,,42.0,9816.357442581773,15377968.0,,2.225371591539355,84000042.0,USA,120121.7092125294,
Puerto Rico,US,2021-08-17 04:30:48,18.2208,-66.5901,158798,2678,,,72.0,4972.235912394864,2578945.0,,1.6864192244234817,630.0,PRI,80751.161507646,
Rhode Island,US,2021-08-17 04:30:48,41.6809,-71.5118,158283,2747,,,44.0,14941.365596807887,4708082.0,,1.7354990744426122,84000044.0,USA,444426.59301220265,
South Carolina,US,2021-08-17 04:30:48,33.8569,-80.945,667352,10108,,,45.0,12961.527868900857,7169180.0,,1.514642947050432,84000045.0,USA,139242.14862196654,
South Dakota,US,2021-08-17 04:30:48,44.2998,-99.4388,126927,2055,,,46.0,14347.562168021805,850034.0,,1.619040866009596,84000046.0,USA,96086.06253935133,
Tennessee,US,2021-08-17 04:30:48,35.7478,-86.6923,954610,12979,,,47.0,13978.410859058504,8650228.0,,1.3596128261803249,84000047.0,USA,126665.80174996273,
Texas,US,2021-08-17 04:30:48,31.0545,-97.5635,3356260,54379,,,48.0,11574.954387486967,28163500.0,,1.6202260849874563,84000048.0,USA,97129.3129531053,
Utah,US,2021-08-17 04:30:48,40.15,-111.8624,446808,2537,,,49.0,13936.801417860122,3795536.0,,0.5678054108252314,84000049.0,USA,118390.07248379425,
Vermont,US,2021-08-17 04:30:48,44.0459,-72.7107,26040,264,,,50.0,4173.15048822976,1815729.0,,1.0138248847926268,84000050.0,USA,290987.3411230005,
Virgin Islands,US,2021-08-17 04:30:48,18.3358,-64.8963,5295,41,,,78.0,4936.234478129545,156420.0,,0.7743153918791312,850.0,VIR,145821.68027743595,
Virginia,US,2021-08-17 04:30:48,37.7693,-78.17,723727,11618,,,51.0,8479.004030100572,8193781.0,,1.6053014465399251,84000051.0,USA,95996.28329571993,
Washington,US,2021-08-17 04:30:48,47.4009,-121.4905,514884,6248,,,53.0,6761.539525243493,9072392.0,,1.2134772104007894,84000053.0,USA,119140.11135809787,
West Virginia,US,2021-08-17 04:30:48,38.4912,-80.9545,173479,2978,,,54.0,9679.953709154439,3245903.0,,1.7166342900293408,84000054.0,USA,181118.12256472267,
Wisconsin,US,2021-08-17 04:30:48,44.2685,-89.6165,707327,8324,,,55.0,12148.30430022908,9542629.0,,1.1768248631820926,84000055.0,USA,163894.15491871609,
Wyoming,US,2021-08-17 04:30:48,42.756,-107.3025,68944,793,,,56.0,11912.38494779347,843886.0,,1.1502088651659317,84000056.0,USA,145809.56840411984,
