Province_State,Country_Region,Last_Update,Lat,Long_,Confirmed,Deaths,Recovered,Active,FIPS,Incident_Rate,People_Tested,People_Hospitalized,Mortality_Rate,UID,ISO3,Testing_Rate,Hospitalization_Rate
Alabama,US,2020-08-12 04:30:24,32.3182,-86.9023,103485,1847,37923.0,64081.0,1.0,2118.0314428274687,1198621.0,12070.0,1.778509595478137,84000001,USA,24445.763315069693,11.62242058333574
Alaska,US,2020-08-12 04:30:24,61.3707,-152.4044,3871,26,1344.0,2449.0,2.0,522.0458071615553,290744.0,,0.6808064938465567,84000002,USA,39743.82983958608,
American Samoa,US,2020-08-12 04:30:24,-14.271,-170.132,0,0,,0.0,60.0,0.0,1396.0,,,16,ASM,2508.9412483600217,
Arizona,US,2020-08-12 04:30:24,33.7298,-111.4312,188737,4199,26102.0,158436.0,4.0,2592.9981891039315,1478449.0,19292.0,2.2247889920895214,84000004,USA,14250.794473806303,10.22163115870232
Arkansas,US,2020-08-12 04:30:24,34.9697,-92.3731,50411,566,42998.0,6847.0,5.0,1670.4530844282795,572868.0,3401.0,1.1227708238281326,84000005,USA,18982.942563532957,6.7465434131439554
California,US,2020-08-12 04:30:24,36.1162,-119.6816,590661,10352,,568423.0,6.0,1465.2326699006535,9186279.0,,1.817613387086188,84000006,USA,23249.2082260216,
Colorado,US,2020-08-12 04:30:24,39.0598,-105.3111,51441,1874,5579.0,43969.0,8.0,892.939006059663,597182.0,6627.0,3.644354556415542,84000008,USA,10370.018698547738,12.887480066897435
Connecticut,US,2020-08-12 04:30:24,41.5978,-72.7554,50684,4444,8721.0,37519.0,9.0,1421.5966344364422,911299.0,10920.0,8.7680530344882,84000009,USA,25560.326559965582,21.54526083182069
Delaware,US,2020-08-12 04:30:24,39.3185,-75.5071,15699,608,8519.0,6589.0,10.0,1612.1976166709799,202200.0,,3.764570991782916,84000010,USA,20764.78489654577,
Diamond Princess,US,2020-08-12 04:30:24,,,49,0,,49.0,88888.0,,,,0.0,84088888,USA,,
District of Columbia,US,2020-08-12 04:30:24,38.8974,-77.0268,12896,593,10232.0,2071.0,11.0,1827.278536703559,224749.0,,4.598325062034738,84000011,USA,31845.45780440355,
Florida,US,2020-08-12 04:30:24,27.7663,-81.6868,542792,8553,,534239.0,12.0,2527.230871669581,6783079.0,31750.0,1.5757417205854176,84000012,USA,31581.90734899119,5.849386136862738
Georgia,US,2020-08-12 04:30:24,33.0406,-83.6431,222588,4351,,218237.0,13.0,2096.4409160301893,1895485.0,21031.0,1.954732510288066,84000013,USA,17852.590030556377,9.448397936995706
Grand Princess,US,2020-08-12 04:30:24,,,103,3,,100.0,99999.0,,,,2.9126213592233015,84099999,USA,,
Guam,US,2020-08-12 04:30:24,13.4443,144.7937,449,5,325.0,119.0,66.0,273.39872982238217,25616.0,,1.11358574610245,316,GUM,15597.732434588288,
Hawaii,US,2020-08-12 04:30:24,21.0943,-157.4983,3756,34,1586.0,2136.0,15.0,265.27821723997647,145836.0,242.0,0.9052183173588924,84000015,USA,10300.083623378383,6.443024494142705
Idaho,US,2020-08-12 04:30:24,44.2405,-114.4788,25598,246,9341.0,16011.0,16.0,1432.4045292141025,208405.0,1006.0,0.9610125791077428,84000016,USA,11661.858969875186,3.9299945308227207
Illinois,US,2020-08-12 04:30:24,40.3495,-88.9861,198248,7866,,190382.0,17.0,1564.4791699630227,3149003.0,,3.9677575561922436,84000017,USA,24850.437833678363,
Indiana,US,2020-08-12 04:30:24,39.8494,-86.2583,75862,3010,56349.0,16444.0,18.0,1126.8498544090735,861655.0,9599.0,4.045503677730617,84000018,USA,12798.97460257903,12.653238775671616
Iowa,US,2020-08-12 04:30:24,42.0115,-93.2105,49521,946,38033.0,10542.0,19.0,1569.56897945212,523920.0,,1.910300680519376,84000019,USA,16605.65375728589,
Kansas,US,2020-08-12 04:30:24,38.5266,-96.7265,31454,393,1319.0,29756.0,20.0,1080.1444677779327,326669.0,1911.0,1.248887758993263,84000020,USA,11212.96914785018,6.072835896784035
Kentucky,US,2020-08-12 04:30:24,37.6681,-84.6701,35793,783,8819.0,26191.0,21.0,801.1553217972757,668355.0,4063.0,2.187578576816696,84000021,USA,14959.801220904035,11.351381555052665
Louisiana,US,2020-08-12 04:30:24,31.1695,-91.8678,133125,4313,89083.0,39729.0,22.0,2863.645926233772,1568564.0,,3.2398122065727697,84000022,USA,33741.31011182685,
Maine,US,2020-08-12 04:30:24,44.6939,-69.3819,4052,126,3560.0,366.0,23.0,301.44054658045013,192453.0,394.0,3.1095755182625866,84000023,USA,14317.161281107445,9.723593287265546
Maryland,US,2020-08-12 04:30:24,39.0639,-76.8021,96843,3604,5935.0,87304.0,24.0,1601.8545473792858,1067459.0,13266.0,3.7214873558233434,84000024,USA,17656.558071217794,13.698460394659396
Massachusetts,US,2020-08-12 04:30:24,42.2302,-71.5301,121707,8751,99021.0,13935.0,25.0,1765.7881324099533,1346344.0,12089.0,7.1902191328354155,84000025,USA,19533.455407999096,9.932871568603288
Michigan,US,2020-08-12 04:30:24,43.3266,-84.5361,98213,6533,63636.0,28044.0,26.0,983.4225122077949,2146554.0,,6.651868897192836,84000026,USA,21493.78928726025,
Minnesota,US,2020-08-12 04:30:24,45.6945,-93.9002,61839,1707,55151.0,4981.0,27.0,1096.5077153970328,946030.0,5661.0,2.760393926163101,84000027,USA,16774.676078155455,9.154417115412604
Mississippi,US,2020-08-12 04:30:24,32.7416,-89.6787,68293,1944,49836.0,16513.0,28.0,2294.676778615587,504404.0,4738.0,2.8465582124082998,84000028,USA,16948.210590262785,6.937753503287307
Missouri,US,2020-08-12 04:30:24,38.4561,-92.2884,62445,1366,,60094.0,29.0,1001.07080685916,787220.0,,2.190755208333333,84000029,USA,12826.54558228626,
Montana,US,2020-08-12 04:30:24,46.9219,-110.4544,5104,77,3542.0,1485.0,30.0,477.5547400863416,194412.0,276.0,1.5086206896551724,84000030,USA,18190.119931360863,5.407523510971787
Nebraska,US,2020-08-12 04:30:24,41.1254,-98.2681,29030,351,21113.0,7566.0,31.0,1500.7175321855575,305732.0,1741.0,1.2090940406476058,84000031,USA,15804.938771965377,5.997244230106786
Nevada,US,2020-08-12 04:30:24,38.3135,-117.0554,57520,981,1361.0,55178.0,32.0,1867.4378830163148,524749.0,,1.7054937413073714,84000032,USA,17036.442310064816,
New Hampshire,US,2020-08-12 04:30:24,43.4525,-71.5639,6861,419,6126.0,316.0,33.0,504.5925200281531,175399.0,705.0,6.106981489578779,84000033,USA,12899.72648599592,10.275470048097946
New Jersey,US,2020-08-12 04:30:24,40.2989,-74.521,188184,15890,33223.0,136362.0,34.0,2088.167445190882,2350310.0,22052.0,8.567192343981668,84000034,USA,26460.92911770633,11.889472974794447
New Mexico,US,2020-08-12 04:30:24,34.8405,-106.2485,22643,693,9428.0,12522.0,35.0,1079.868696970521,632997.0,2870.0,3.0605485138895023,84000035,USA,30188.298616625387,12.67499889590602
New York,US,2020-08-12 04:30:24,42.1657,-74.9481,422003,32620,73779.0,315437.0,36.0,2169.2840709215147,6640705.0,89995.0,7.769376047089713,84000036,USA,34136.1923403124,21.32567777954185
North Carolina,US,2020-08-12 04:30:24,35.6301,-79.8064,138743,2248,116969.0,19526.0,37.0,1322.8631654742658,2017498.0,,1.6202619231240496,84000037,USA,19236.09688862141,
North Dakota,US,2020-08-12 04:30:24,47.5289,-99.784,7885,118,6668.0,1099.0,38.0,1034.6927152908818,171858.0,430.0,1.4965123652504757,84000038,USA,22551.708391180768,5.453392517438173
Northern Mariana Islands,US,2020-08-12 04:30:24,15.0979,145.6739,49,2,29.0,18.0,69.0,88.85826200493256,12301.0,4.0,4.081632653061225,580,MNP,22307.050631075,8.16326530612245
Ohio,US,2020-08-12 04:30:24,40.3888,-82.7649,102826,3446,80885.0,18233.0,39.0,879.6742264160629,1707770.0,11760.0,3.6060918444751326,84000039,USA,14609.93575211094,11.43679614105382
Oklahoma,US,2020-08-12 04:30:24,35.5653,-96.9289,44728,618,37193.0,6917.0,40.0,1130.3595603809074,714235.0,3760.0,1.381684850652835,84000040,USA,18050.04383403366,8.406367376140226
Oregon,US,2020-08-12 04:30:24,44.572,-122.0709,21774,368,4226.0,17180.0,41.0,516.2484052466998,457088.0,1813.0,1.6900890970882705,84000041,USA,10837.280750317052,8.326444383209333
Pennsylvania,US,2020-08-12 04:30:24,40.5908,-77.2098,125066,7348,92616.0,25057.0,42.0,976.5357554986183,1806212.0,,5.8736481730338514,84000042,USA,10745.158428116129,
Puerto Rico,US,2020-08-12 04:30:24,18.2208,-66.5901,23403,287,,23116.0,72.0,797.8092375830432,467022.0,,1.2263385036106482,630,PRI,14623.254450802111,
Rhode Island,US,2020-08-12 04:30:24,41.6809,-71.5118,20053,1041,1911.0,17126.0,44.0,1892.9335703315492,224170.0,2317.0,5.066573580012966,84000044,USA,21160.86961857195,11.554380890639806
South Carolina,US,2020-08-12 04:30:24,33.8569,-80.945,102130,2098,40837.0,59195.0,45.0,1983.6021188980396,796351.0,6482.0,2.0542445902281408,84000045,USA,15466.98845575808,6.34681288553804
South Dakota,US,2020-08-12 04:30:24,44.2998,-99.4388,9713,146,8507.0,1060.0,46.0,1097.9371712716422,122409.0,887.0,1.503140121486667,84000046,USA,13836.856913228714,9.132091012045713
Tennessee,US,2020-08-12 04:30:24,35.7478,-86.6923,124915,1271,85313.0,38331.0,47.0,1829.1377551662908,1740784.0,5464.0,1.017491894488252,84000047,USA,25490.40337821236,4.374174438618261
Texas,US,2020-08-12 04:30:24,31.0545,-97.5635,522215,9593,358312.0,150166.0,48.0,1785.4260058523487,4088863.0,,1.7813405447170176,84000048,USA,14101.530489796118,
Utah,US,2020-08-12 04:30:24,40.15,-111.8624,44752,349,34764.0,9639.0,49.0,1395.90100681294,578549.0,2677.0,0.7798534143725421,84000049,USA,18046.05674809214,5.981855559528066
Vermont,US,2020-08-12 04:30:24,44.0459,-72.7107,1472,58,1295.0,119.0,50.0,235.90159441913244,103957.0,,3.940217391304348,84000050,USA,16660.069328145208,
Virgin Islands,US,2020-08-12 04:30:24,18.3358,-64.8963,576,9,439.0,128.0,78.0,536.9728157512026,11063.0,,1.5625,850,VIR,10313.420591415894,
Virginia,US,2020-08-12 04:30:24,37.7693,-78.17,101745,2344,13152.0,86249.0,51.0,1192.018903595669,1271545.0,14445.0,2.3037987124674437,84000051,USA,14897.102332031596,14.197257850508626
Washington,US,2020-08-12 04:30:24,47.4009,-121.4905,64800,1741,,62435.0,53.0,842.4412529499757,1013754.0,6049.0,2.674938816230456,84000053,USA,13312.780626070515,9.429315209427756
West Virginia,US,2020-08-12 04:30:24,38.4912,-80.9545,7879,147,5863.0,1869.0,54.0,439.6402750444022,330609.0,,1.8657189998730803,84000054,USA,18447.64966266718,
Wisconsin,US,2020-08-12 04:30:24,44.2685,-89.6165,61785,1006,51456.0,9323.0,55.0,1061.1541496219622,1080400.0,5092.0,1.628226915918103,84000055,USA,18555.813599604564,8.241482560492031
Wyoming,US,2020-08-12 04:30:24,42.756,-107.3025,3073,29,2541.0,503.0,56.0,530.9636653598475,58852.0,183.0,0.9437032216075496,84000056,USA,10168.653964776357,5.955092743247642
