Province_State,Country_Region,Last_Update,Lat,Long_,Confirmed,Deaths,Recovered,Active,FIPS,Incident_Rate,People_Tested,People_Hospitalized,Mortality_Rate,UID,ISO3,Testing_Rate,Hospitalization_Rate
Alabama,US,2020-09-06 04:30:30,32.3182,-86.9023,130914,2275,51154.0,78374.0,1.0,2688.1098714407067,1561596.0,,1.726060863561527,84000001,USA,31848.604529504802,
Alaska,US,2020-09-06 04:30:30,61.3707,-152.4044,5724,42,2321.0,3314.0,2.0,776.0288157256218,385002.0,,0.7398273736128237,84000002,USA,52628.614781045595,
American Samoa,US,2020-09-06 04:30:30,-14.271,-170.132,0,0,,0.0,60.0,0.0,1514.0,,,16,ASM,2721.015078808792,
Arizona,US,2020-09-06 04:30:30,33.7298,-111.4312,205517,5207,31548.0,168762.0,4.0,2823.533323249139,1843841.0,,2.5336103582671994,84000004,USA,17211.48108931835,
Arkansas,US,2020-09-06 04:30:30,34.9697,-92.3731,64690,882,57968.0,5840.0,5.0,2143.611712357728,765411.0,,1.3634255680939866,84000005,USA,25363.177993004185,
California,US,2020-09-06 04:30:30,36.1162,-119.6816,737754,13539,,721605.0,6.0,1860.9785635194453,11916323.0,,1.8643735873381984,84000006,USA,30158.57396836417,
Colorado,US,2020-09-06 04:30:30,39.0598,-105.3111,58986,1971,6029.0,50966.0,8.0,1023.9399757168933,1040752.0,,3.34260421259709,84000008,USA,18072.57703773884,
Connecticut,US,2020-09-06 04:30:30,41.5978,-72.7554,53365,4468,9049.0,39848.0,9.0,1496.7939467425765,1237658.0,,8.372528811018459,84000009,USA,34714.119788953874,
Delaware,US,2020-09-06 04:30:30,39.3185,-75.5071,17892,623,9641.0,7643.0,10.0,1837.4061887685311,248632.0,,3.3981667784484686,84000010,USA,25533.086045489457,
Diamond Princess,US,2020-09-06 04:30:30,,,49,0,,49.0,88888.0,,,,0.0,84088888,USA,,
District of Columbia,US,2020-09-06 04:30:30,38.8974,-77.0268,14238,611,11323.0,2304.0,11.0,2017.4311263636225,307864.0,,4.291333052394998,84000011,USA,43622.30764761976,
Florida,US,2020-09-06 04:30:30,27.7663,-81.6868,643867,11811,,632056.0,12.0,2997.8344552780395,8413020.0,,1.8343850515712097,84000012,USA,39170.88657897245,
Georgia,US,2020-09-06 04:30:30,33.0406,-83.6431,281548,5977,,275571.0,13.0,2651.754573590974,2460729.0,,2.122906218477844,84000013,USA,23176.330075574835,
Grand Princess,US,2020-09-06 04:30:30,,,103,3,,100.0,99999.0,,,,2.9126213592233015,84099999,USA,,
Guam,US,2020-09-06 04:30:30,13.4443,144.7937,1619,14,744.0,861.0,66.0,985.8185825889461,40741.0,,0.8647313156269302,316,GUM,24807.433522703053,
Hawaii,US,2020-09-06 04:30:30,21.0943,-157.4983,9693,84,2855.0,6754.0,15.0,684.5957826696199,221391.0,,0.8666047663262147,84000015,USA,15636.371084391809,
Idaho,US,2020-09-06 04:30:30,44.2405,-114.4788,33474,384,16071.0,17019.0,16.0,1873.1271666111752,265645.0,,1.1471589890661409,84000016,USA,14864.876207636544,
Illinois,US,2020-09-06 04:30:30,40.3495,-88.9861,250102,8385,,241717.0,17.0,1973.6863391615145,4373804.0,,3.3526321260925545,84000017,USA,34515.98629747058,
Indiana,US,2020-09-06 04:30:30,39.8494,-86.2583,98961,3311,75680.0,19919.0,18.0,1469.9610930660456,1129078.0,,3.3972979254453777,84000018,USA,16771.260709136168,
Iowa,US,2020-09-06 04:30:30,42.0115,-93.2105,69690,1164,49521.0,19005.0,19.0,2208.825794673335,648511.0,,1.6702539819199311,84000019,USA,20554.567727498918,
Kansas,US,2020-09-06 04:30:30,38.5266,-96.7265,45624,481,1785.0,43391.0,20.0,1567.1499879518653,427205.0,,1.0513404590853341,84000020,USA,14663.884497174009,
Kentucky,US,2020-09-06 04:30:30,37.6681,-84.6701,52464,993,10613.0,40858.0,21.0,1174.3025955570156,871819.0,,1.8927264409881064,84000021,USA,19513.939359483116,
Louisiana,US,2020-09-06 04:30:30,31.1695,-91.8678,151473,5035,134432.0,12006.0,22.0,3258.328934342972,1932644.0,,3.3240247436836934,84000022,USA,41573.01872270529,
Maine,US,2020-09-06 04:30:30,44.6939,-69.3819,4633,134,4037.0,462.0,23.0,344.66289543613664,291975.0,,2.8922944096697605,84000023,USA,21720.904143096475,
Maryland,US,2020-09-06 04:30:30,39.0639,-76.8021,111607,3796,7099.0,100712.0,24.0,1846.0619814479096,1384455.0,,3.4012203535620524,84000024,USA,22899.905386987077,
Massachusetts,US,2020-09-06 04:30:30,42.2302,-71.5301,122196,9116,105769.0,7311.0,25.0,1772.8827974394787,1841675.0,,7.4601459949589195,84000025,USA,26719.97386145497,
Michigan,US,2020-09-06 04:30:30,43.3266,-84.5361,117191,6806,80678.0,29707.0,26.0,1173.452268316248,2919002.0,,5.807613212618715,84000026,USA,29228.434932031167,
Minnesota,US,2020-09-06 04:30:30,45.6945,-93.9002,79880,1903,71507.0,6470.0,27.0,1416.404474618202,1177800.0,,2.382323485227842,84000027,USA,20884.34138965096,
Mississippi,US,2020-09-06 04:30:30,32.7416,-89.6787,86478,2569,67918.0,15991.0,28.0,2905.701293853231,597399.0,,2.9706977497166913,84000028,USA,20072.886135741188,
Missouri,US,2020-09-06 04:30:30,38.4561,-92.2884,94966,1692,,91503.0,29.0,1518.0789086242642,1038301.0,,1.7902566249154779,84000029,USA,16917.526364464073,
Montana,US,2020-09-06 04:30:30,46.9219,-110.4544,8164,116,6219.0,1829.0,30.0,763.8630286177298,261050.0,,1.4208721215090645,84000030,USA,24425.09108533297,
Nebraska,US,2020-09-06 04:30:30,41.1254,-98.2681,35805,404,26973.0,8428.0,31.0,1850.9538835654114,375524.0,,1.1283340315598378,84000031,USA,19412.86429750084,
Nevada,US,2020-09-06 04:30:30,38.3135,-117.0554,71102,1388,1853.0,67861.0,32.0,2308.3895750734705,613004.0,,1.9521251160304915,84000032,USA,19901.71926356977,
New Hampshire,US,2020-09-06 04:30:30,43.4525,-71.5639,7424,432,6742.0,250.0,33.0,545.9983775964157,218745.0,,5.818965517241379,84000033,USA,16087.609793551715,
New Jersey,US,2020-09-06 04:30:30,40.2989,-74.521,197531,15985,34112.0,143650.0,34.0,2181.297630426731,2965047.0,,8.25045032955349,84000034,USA,33381.93621167752,
New Mexico,US,2020-09-06 04:30:30,34.8405,-106.2485,26048,800,13412.0,11836.0,35.0,1242.2567600886866,782044.0,,3.0712530712530715,84000035,USA,37296.50820357788,
New York,US,2020-09-06 04:30:30,42.1657,-74.9481,441012,32821,75366.0,330419.0,36.0,2255.4842272836318,8710614.0,,7.518027586081152,84000036,USA,44776.449926057234,
North Carolina,US,2020-09-06 04:30:30,35.6301,-79.8064,175815,2889,145884.0,27042.0,37.0,1676.330967600946,2410871.0,,1.6432045047350907,84000037,USA,22986.76288252459,
North Dakota,US,2020-09-06 04:30:30,47.5289,-99.784,13334,155,10640.0,2539.0,38.0,1749.7264002141558,209499.0,,1.1624418779061048,84000038,USA,27491.07028037089,
Northern Mariana Islands,US,2020-09-06 04:30:30,15.0979,145.6739,58,2,29.0,27.0,69.0,105.17916727114464,13542.0,,3.4482758620689653,580,MNP,24557.52212389381,
Ohio,US,2020-09-06 04:30:30,40.3888,-82.7649,129785,4020,107972.0,17557.0,39.0,1110.3078936787263,2377910.0,,3.2792695611973657,84000039,USA,20342.969090862432,
Oklahoma,US,2020-09-06 04:30:30,35.5653,-96.9289,63187,850,52740.0,9597.0,40.0,1596.8527441823558,923273.0,,1.3452134141516452,84000040,USA,23332.821999453623,
Oregon,US,2020-09-06 04:30:30,44.572,-122.0709,27856,480,5198.0,22178.0,41.0,660.4489563953372,580107.0,,1.7231476163124642,84000041,USA,13753.987031434155,
Pennsylvania,US,2020-09-06 04:30:30,40.5908,-77.2098,143417,7752,112286.0,23244.0,42.0,1119.2010866436458,2406497.0,,5.408989391401452,84000042,USA,13495.60603434357,
Puerto Rico,US,2020-09-06 04:30:30,18.2208,-66.5901,34492,464,,34028.0,72.0,1175.8337060511187,584159.0,,1.3452394758204802,630,PRI,18291.013478435943,
Rhode Island,US,2020-09-06 04:30:30,41.6809,-71.5118,22243,1087,2147.0,19041.0,44.0,2099.661966034241,557522.0,,4.743065234006204,84000044,USA,52628.14092646416,
South Carolina,US,2020-09-06 04:30:30,33.8569,-80.945,124289,2877,51431.0,69981.0,45.0,2413.981433033569,993927.0,,2.3147663912333347,84000045,USA,19304.37386889231,
South Dakota,US,2020-09-06 04:30:30,44.2998,-99.4388,14889,173,11659.0,3057.0,46.0,1683.0213675551822,153907.0,,1.161931627375915,84000046,USA,17397.324844940253,
Tennessee,US,2020-09-06 04:30:30,35.7478,-86.6923,162362,1862,144383.0,16117.0,47.0,2377.4763975848323,2310324.0,,1.1468200687352952,84000047,USA,33830.21138427575,
Texas,US,2020-09-06 04:30:30,31.0545,-97.5635,659411,13873,538282.0,103957.0,48.0,2261.752281298161,5183948.0,,2.0700959874354807,84000048,USA,17878.222082646844,
Utah,US,2020-09-06 04:30:30,40.15,-111.8624,54272,420,45896.0,7956.0,49.0,1692.848128390952,683965.0,,0.7738797169811321,84000049,USA,21334.18466492699,
Vermont,US,2020-09-06 04:30:30,44.0459,-72.7107,1647,58,1451.0,138.0,50.0,263.9469606034722,143088.0,,3.5215543412264725,84000050,USA,22931.173466198925,
Virgin Islands,US,2020-09-06 04:30:30,18.3358,-64.8963,1167,16,1061.0,90.0,78.0,1087.9292985792597,17211.0,,1.3710368466152527,850,VIR,16044.859603982548,
Virginia,US,2020-09-06 04:30:30,37.7693,-78.17,125727,2677,15636.0,107368.0,51.0,1472.4470767389773,1657556.0,,2.129995782974356,84000051,USA,19419.51040118357,
Washington,US,2020-09-06 04:30:30,47.4009,-121.4905,77979,1942,,74883.0,53.0,1009.022713779432,1534090.0,,2.5417772918944244,84000053,USA,20145.916692460414,
West Virginia,US,2020-09-06 04:30:30,38.4912,-80.9545,11293,246,8516.0,2531.0,54.0,630.1380411316705,453481.0,,2.17834056495174,84000054,USA,25303.783673995487,
Wisconsin,US,2020-09-06 04:30:30,44.2685,-89.6165,80300,1168,71153.0,7979.0,55.0,1379.1483080787177,1302741.0,,1.4545454545454546,84000055,USA,22374.508667680904,
Wyoming,US,2020-09-06 04:30:30,42.756,-107.3025,3990,42,3404.0,544.0,56.0,689.4061258658612,78318.0,,1.0526315789473684,84000056,USA,13532.057384852762,
