Province_State,Country_Region,Last_Update,Lat,Long_,Confirmed,Deaths,Recovered,Active,FIPS,Incident_Rate,People_Tested,People_Hospitalized,Mortality_Rate,UID,ISO3,Testing_Rate,Hospitalization_Rate
Alabama,US,2020-10-19 04:30:24,32.3182,-86.9023,173002,2788,74238.0,95600.0,1.0,3520.6911425940484,2104607.0,,1.6150521937599205,84000001,USA,42923.26314426235,
Alaska,US,2020-10-19 04:30:24,61.3707,-152.4044,11032,67,6488.0,4425.0,2.0,1500.9329569609524,532711.0,,0.6102003642987249,84000002,USA,72819.99056790765,
American Samoa,US,2020-10-19 04:30:24,-14.271,-170.132,0,0,,0.0,60.0,0.0,1616.0,,,16,ASM,2904.3331356373897,
Arizona,US,2020-10-19 04:30:24,33.7298,-111.4312,231149,5827,38384.0,186938.0,4.0,3175.6832969326874,2526396.0,,2.5208847972519894,84000004,USA,22408.111209709077,
Arkansas,US,2020-10-19 04:30:24,34.9697,-92.3731,99066,1704,88450.0,8912.0,5.0,3282.7181619482244,1215944.0,,1.7200654109381623,84000005,USA,40292.34502969709,
California,US,2020-10-19 04:30:24,36.1162,-119.6816,881852,16908,,858713.0,6.0,2216.2559671724875,16892062.0,,1.9389237311748884,84000006,USA,42751.48477472401,
Colorado,US,2020-10-19 04:30:24,39.0598,-105.3111,85302,2176,7127.0,75976.0,8.0,1480.8631616382486,1668053.0,,2.5516246672686123,84000008,USA,28965.609814375934,
Connecticut,US,2020-10-19 04:30:24,41.5978,-72.7554,62830,4542,9651.0,48637.0,9.0,1762.270470792393,1967633.0,,7.229030717809963,84000009,USA,55188.62857323969,
Delaware,US,2020-10-19 04:30:24,39.3185,-75.5071,23093,688,12018.0,10410.0,10.0,2371.5191771312147,327296.0,,2.8796605031827833,84000010,USA,33611.429463401815,
Diamond Princess,US,2020-10-19 04:30:24,,,49,0,,49.0,88888.0,,,,0.0,84088888,USA,,
District of Columbia,US,2020-10-19 04:30:24,38.8974,-77.0268,16370,641,12801.0,2928.0,11.0,2319.521529608969,466805.0,,3.915699450213806,84000011,USA,66143.20388693432,
Florida,US,2020-10-19 04:30:24,27.7663,-81.6868,755020,15967,,739053.0,12.0,3515.361045719109,10848420.0,,2.1147784164657892,84000012,USA,50510.07003205226,
Georgia,US,2020-10-19 04:30:24,33.0406,-83.6431,340558,7638,,332920.0,13.0,3207.5391552168544,3298458.0,,2.242789774429025,84000013,USA,31066.464998145027,
Grand Princess,US,2020-10-19 04:30:24,,,103,3,,100.0,99999.0,,,,2.9126213592233015,84099999,USA,,
Guam,US,2020-10-19 04:30:24,13.4443,144.7937,3538,63,2297.0,1178.0,66.0,2154.308922297524,58968.0,,1.7806670435274166,316,GUM,35905.96057943482,
Hawaii,US,2020-10-19 04:30:24,21.0943,-157.4983,14031,187,10995.0,2849.0,15.0,990.979410568187,473581.0,,1.332763167272468,84000015,USA,33448.00942458076,
Idaho,US,2020-10-19 04:30:24,44.2405,-114.4788,53092,528,25679.0,26885.0,16.0,2970.904807603529,350312.0,,0.9945001130113764,84000016,USA,19602.64455965508,
Illinois,US,2020-10-19 04:30:24,40.3495,-88.9861,347631,9474,,338157.0,17.0,2743.338940788384,6779140.0,,2.725303554631204,84000017,USA,53497.75695221705,
Indiana,US,2020-10-19 04:30:24,39.8494,-86.2583,147582,4055,107148.0,36497.0,18.0,2192.174675244522,2512174.0,,2.667669498990392,84000018,USA,37315.69041351745,
Iowa,US,2020-10-19 04:30:24,42.0115,-93.2105,107334,1532,81811.0,23991.0,19.0,3401.953047000542,832536.0,,1.427320327202937,84000019,USA,26387.24338921165,
Kansas,US,2020-10-19 04:30:24,38.5266,-96.7265,73998,861,2379.0,67030.0,20.0,2411.961086240618,589189.0,,1.2224625718677065,84000020,USA,20224.012928232252,
Kentucky,US,2020-10-19 04:30:24,37.6681,-84.6701,87607,1318,17155.0,69134.0,21.0,1960.908956407508,1674648.0,,1.5044459917586497,84000021,USA,37483.674387091436,
Louisiana,US,2020-10-19 04:30:24,31.1695,-91.8678,175781,5750,161792.0,8239.0,22.0,3781.2172361261873,2592598.0,,3.2711157633646413,84000022,USA,55769.25972628599,
Maine,US,2020-10-19 04:30:24,44.6939,-69.3819,5937,146,5145.0,646.0,23.0,441.6714030227375,533715.0,,2.4591544551120093,84000023,USA,39704.674560262814,
Maryland,US,2020-10-19 04:30:24,39.0639,-76.8021,135657,4037,7890.0,123730.0,24.0,2243.8666948961904,3079162.0,,2.975887716815203,84000024,USA,50931.607362612645,
Massachusetts,US,2020-10-19 04:30:24,42.2302,-71.5301,143660,9737,118892.0,15031.0,25.0,2084.2936158315783,5168943.0,,6.777808715021579,84000025,USA,74993.69967630047,
Michigan,US,2020-10-19 04:30:24,43.3266,-84.5361,161105,7340,109539.0,44226.0,26.0,1613.170189580165,4270757.0,,4.55603488408181,84000026,USA,42763.77442873168,
Minnesota,US,2020-10-19 04:30:24,45.6945,-93.9002,122812,2287,108316.0,12209.0,27.0,2177.659818938541,2489218.0,,1.8621958766244344,84000027,USA,44137.950845019666,
Mississippi,US,2020-10-19 04:30:24,32.7416,-89.6787,110006,3171,94165.0,12670.0,28.0,3696.2531109833553,839550.0,,2.8825700416340925,84000028,USA,28209.273124430263,
Missouri,US,2020-10-19 04:30:24,38.4561,-92.2884,164151,2609,,156363.0,29.0,2589.928549874638,2285067.0,,1.6306501840143437,84000029,USA,37231.670986608726,
Montana,US,2020-10-19 04:30:24,46.9219,-110.4544,22821,241,13441.0,9139.0,30.0,2135.2423047630095,431134.0,,1.0560448709521932,84000030,USA,40338.96655806912,
Nebraska,US,2020-10-19 04:30:24,41.1254,-98.2681,58068,548,38629.0,18891.0,31.0,3001.8486275904565,539127.0,,0.9437211545085072,84000031,USA,27870.387219242264,
Nevada,US,2020-10-19 04:30:24,38.3135,-117.0554,90261,1710,2326.0,86225.0,32.0,2930.403525016265,750365.0,,1.8945059327948948,84000032,USA,24361.266117690142,
New Hampshire,US,2020-10-19 04:30:24,43.4525,-71.5639,9625,466,8256.0,903.0,33.0,707.8710108250945,538613.0,,4.841558441558441,84000033,USA,39612.31467569211,
New Jersey,US,2020-10-19 04:30:24,40.2989,-74.521,227470,16211,35889.0,167547.0,34.0,2472.8923835225323,4138871.0,,7.380478677150156,84000034,USA,46597.415727427586,
New Mexico,US,2020-10-19 04:30:24,34.8405,-106.2485,36788,934,19853.0,16001.0,35.0,1754.4587565318868,1046727.0,,2.538871371099272,84000035,USA,49919.52133435773,
New York,US,2020-10-19 04:30:24,42.1657,-74.9481,487719,33389,78362.0,372562.0,36.0,2489.420831486842,12900166.0,,6.8879431569687855,84000036,USA,66312.62009048113,
North Carolina,US,2020-10-19 04:30:24,35.6301,-79.8064,246028,3934,206471.0,35623.0,37.0,2345.7859414550835,3617258.0,,1.5990049913018032,84000037,USA,34489.21652420022,
North Dakota,US,2020-10-19 04:30:24,47.5289,-99.784,31978,404,25922.0,5652.0,38.0,4196.246499628639,733088.0,,1.2633685658890488,84000038,USA,96197.9471486572,
Northern Mariana Islands,US,2020-10-19 04:30:24,15.0979,145.6739,86,2,29.0,55.0,69.0,155.95531698824894,15542.0,,2.3255813953488373,580,MNP,28184.38996082983,
Ohio,US,2020-10-19 04:30:24,40.3888,-82.7649,181787,4862,150167.0,26553.0,39.0,1555.1838892643575,3900649.0,,2.787328026756589,84000039,USA,33369.968603228655,
Oklahoma,US,2020-10-19 04:30:24,35.5653,-96.9289,107299,1171,91643.0,14485.0,40.0,2711.644841470913,1434831.0,,1.0913428829718823,84000040,USA,36260.84194198037,
Oregon,US,2020-10-19 04:30:24,44.572,-122.0709,39532,620,5870.0,33042.0,41.0,937.2798730693736,785104.0,,1.5683496913892545,84000041,USA,18614.342240874663,
Pennsylvania,US,2020-10-19 04:30:24,40.5908,-77.2098,186883,8470,144754.0,33535.0,42.0,1458.7889428744236,3652158.0,,4.53270077213875,84000042,USA,18082.057405298503,
Puerto Rico,US,2020-10-19 04:30:24,18.2208,-66.5901,57293,766,25870.0,30657.0,72.0,1953.120738744832,816827.0,,1.3369870664828165,630,PRI,25576.244937680316,
Rhode Island,US,2020-10-19 04:30:24,41.6809,-71.5118,27691,1176,2501.0,24038.0,44.0,2613.934249042584,935623.0,,4.160196453721426,84000044,USA,88319.56245321472,
South Carolina,US,2020-10-19 04:30:24,33.8569,-80.945,163990,3650,82119.0,78221.0,45.0,3185.067183766665,1601263.0,,2.2257454722848955,84000045,USA,31100.2514414279,
South Dakota,US,2020-10-19 04:30:24,44.2998,-99.4388,33269,323,24934.0,8012.0,46.0,3760.658061467752,231047.0,,0.9708737864077671,84000046,USA,26117.068836693008,
Tennessee,US,2020-10-19 04:30:24,35.7478,-86.6923,228744,2909,204726.0,21109.0,47.0,3349.511961475868,3340819.0,,1.2717273458538805,84000047,USA,48919.81079995912,
Texas,US,2020-10-19 04:30:24,31.0545,-97.5635,862191,17753,726231.0,110310.0,48.0,2945.2666052809363,7326919.0,,2.0450675990566807,84000048,USA,25268.82697580391,
Utah,US,2020-10-19 04:30:24,40.15,-111.8624,94394,543,70166.0,23685.0,49.0,2944.330524604502,973938.0,,0.5752484268067886,84000049,USA,30379.000598261115,
Vermont,US,2020-10-19 04:30:24,44.0459,-72.7107,1937,58,1689.0,190.0,50.0,310.42213885180666,178460.0,,2.994321115126484,84000050,USA,28599.863138613022,
Virgin Islands,US,2020-10-19 04:30:24,18.3358,-64.8963,1335,21,1296.0,18.0,78.0,1244.546369840027,22852.0,,1.5730337078651686,850,VIR,21303.65066935153,
Virginia,US,2020-10-19 04:30:24,37.7693,-78.17,166138,3433,19034.0,143212.0,51.0,1941.0184664810654,2386778.0,,2.070305898259253,84000051,USA,27962.892473205204,
Washington,US,2020-10-19 04:30:24,47.4009,-121.4905,100572,2221,,95962.0,53.0,1289.591331092899,2214560.0,,2.280017515096588,84000053,USA,29081.958210049703,
West Virginia,US,2020-10-19 04:30:24,38.4912,-80.9545,20081,402,14742.0,4937.0,54.0,1120.4996018741763,680872.0,,2.0018923360390417,84000054,USA,37991.972756699084,
Wisconsin,US,2020-10-19 04:30:24,44.2685,-89.6165,166186,1574,130231.0,34381.0,55.0,2854.235874550059,1765796.0,,0.9471315273248048,84000055,USA,30327.454119703205,
Wyoming,US,2020-10-19 04:30:24,42.756,-107.3025,9025,57,6627.0,2341.0,56.0,1559.3709989823053,117779.0,,0.631578947368421,84000056,USA,20350.266691317112,
