Province_State,Country_Region,Last_Update,Lat,Long_,Confirmed,Deaths,Recovered,Active,FIPS,Incident_Rate,People_Tested,People_Hospitalized,Mortality_Rate,UID,ISO3,Testing_Rate,Hospitalization_Rate
Alabama,US,2020-10-31 04:30:34,32.3182,-86.9023,191932,2932,81005.0,106559.0,1.0,3885.148123107735,2290135.0,,1.5391399294473376,84000001,USA,46707.08937150036,
Alaska,US,2020-10-31 04:30:34,61.3707,-152.4044,15913,81,7096.0,8731.0,2.0,2174.5757267153767,586323.0,,0.5091777721900931,84000002,USA,80148.58962879932,
American Samoa,US,2020-10-31 04:30:34,-14.271,-170.132,0,0,,0.0,60.0,0.0,1616.0,,,16,ASM,2904.3331356373897,
Arizona,US,2020-10-31 04:30:34,33.7298,-111.4312,244045,5934,40906.0,197205.0,4.0,3352.857378573724,2804634.0,,2.431518777274683,84000004,USA,24167.652073847632,
Arkansas,US,2020-10-31 04:30:34,34.9697,-92.3731,110874,1900,99165.0,9809.0,5.0,3673.9960580607617,1336571.0,,1.7136569439183218,84000005,USA,44289.5231101821,
California,US,2020-10-31 04:30:34,36.1162,-119.6816,935292,17593,,910410.0,6.0,2348.71118235995,18444523.0,,1.898434098971152,84000006,USA,46680.5499655132,
Colorado,US,2020-10-31 04:30:34,39.0598,-105.3111,104426,2278,7798.0,94327.0,8.0,1812.9499251224572,1936408.0,,2.1819296380372206,84000008,USA,33625.573389716075,
Connecticut,US,2020-10-31 04:30:34,41.5978,-72.7554,71207,4616,9800.0,56791.0,9.0,1997.2305174870914,2288584.0,,6.48250874211805,84000009,USA,64190.73695890402,
Delaware,US,2020-10-31 04:30:34,39.3185,-75.5071,24751,731,13074.0,10973.0,10.0,2541.786305511397,550857.0,,2.844329522039513,84000010,USA,56569.86703143678,
Diamond Princess,US,2020-10-31 04:30:34,,,49,0,,49.0,88888.0,,,,0.0,84088888,USA,,
District of Columbia,US,2020-10-31 04:30:34,38.8974,-77.0268,17144,646,13348.0,3150.0,11.0,2429.1922482355626,514130.0,,3.768082127858143,84000011,USA,72848.84569443244,
Florida,US,2020-10-31 04:30:34,27.7663,-81.6868,800216,16720,,783496.0,12.0,3725.792898944614,11673678.0,,2.0894358523198737,84000012,USA,54352.458082525176,
Georgia,US,2020-10-31 04:30:34,33.0406,-83.6431,358225,7955,,350270.0,13.0,3373.9354643777497,3535825.0,,2.2206713657617416,84000013,USA,33302.10164933619,
Grand Princess,US,2020-10-31 04:30:34,,,103,3,,100.0,99999.0,,,,2.9126213592233015,84099999,USA,,
Guam,US,2020-10-31 04:30:34,13.4443,144.7937,4628,79,2666.0,1883.0,66.0,2818.0163064988524,67029.0,,1.7070008643042351,316,GUM,40814.350693239314,
Hawaii,US,2020-10-31 04:30:34,21.0943,-157.4983,15003,216,11682.0,3105.0,15.0,1059.6296840392351,521859.0,,1.4397120575884823,84000015,USA,36857.780929349545,
Idaho,US,2020-10-31 04:30:34,44.2405,-114.4788,63810,626,29195.0,33989.0,16.0,3570.6591534163563,381008.0,,0.981037454944366,84000016,USA,21320.321308961906,
Illinois,US,2020-10-31 04:30:34,40.3495,-88.9861,408648,9994,,398654.0,17.0,3224.856159189749,7643468.0,,2.4456255750670506,84000017,USA,60318.62350328339,
Indiana,US,2020-10-31 04:30:34,39.8494,-86.2583,175893,4469,120925.0,50682.0,18.0,2612.7046669159163,2863919.0,,2.436708680845741,84000018,USA,42540.49073566977,
Iowa,US,2020-10-31 04:30:34,42.0115,-93.2105,125722,1714,92387.0,31621.0,19.0,3984.761035412843,884252.0,,1.3633254323030175,84000019,USA,28026.38293286678,
Kansas,US,2020-10-31 04:30:34,38.5266,-96.7265,86805,1031,2659.0,78343.0,20.0,2815.384816054843,642782.0,,1.2423647602443275,84000020,USA,22063.60179506912,
Kentucky,US,2020-10-31 04:30:34,37.6681,-84.6701,105242,1476,18407.0,85359.0,21.0,2355.6334584021706,1876130.0,,1.4024818988616712,84000021,USA,41993.44938629125,
Louisiana,US,2020-10-31 04:30:34,31.1695,-91.8678,182270,5919,168634.0,7717.0,22.0,3920.8018251615367,2763671.0,,3.2473802600537662,84000022,USA,59449.203384791836,
Maine,US,2020-10-31 04:30:34,44.6939,-69.3819,6566,146,5495.0,925.0,23.0,488.4646171883602,623413.0,,2.2235759975632043,84000023,USA,46377.580322151574,
Maryland,US,2020-10-31 04:30:34,39.0639,-76.8021,144314,4137,8164.0,132013.0,24.0,2387.059851001045,3389678.0,,2.866665742755381,84000024,USA,56067.77070569398,
Massachusetts,US,2020-10-31 04:30:34,42.2302,-71.5301,157146,9975,127054.0,20117.0,25.0,2279.955482065079,6009927.0,,6.347600320720859,84000025,USA,87195.13070940992,
Michigan,US,2020-10-31 04:30:34,43.3266,-84.5361,193388,7665,114939.0,70784.0,26.0,1936.4250434345859,4862083.0,,3.9635344488799715,84000026,USA,48684.81645426584,
Minnesota,US,2020-10-31 04:30:34,45.6945,-93.9002,145465,2491,125052.0,17922.0,27.0,2579.334963699759,2774695.0,,1.7124394184168013,84000027,USA,49199.93006635894,
Mississippi,US,2020-10-31 04:30:34,32.7416,-89.6787,119336,3328,101385.0,14623.0,28.0,4009.745479813007,923600.0,,2.7887644968827514,84000028,USA,31033.392481357616,
Missouri,US,2020-10-31 04:30:34,38.4561,-92.2884,190249,2961,,180189.0,29.0,2983.8068976124846,2494866.0,,1.6054256835345575,84000029,USA,40650.024733487706,
Montana,US,2020-10-31 04:30:34,46.9219,-110.4544,31916,364,21102.0,10450.0,30.0,2986.214162342413,492629.0,,1.1404937962150643,84000030,USA,46092.73394474811,
Nebraska,US,2020-10-31 04:30:34,41.1254,-98.2681,69645,646,43516.0,25483.0,31.0,3600.326301380061,920664.0,,0.9275612032450284,84000031,USA,47594.09597148068,
Nevada,US,2020-10-31 04:30:34,38.3135,-117.0554,99784,1777,2409.0,95602.0,32.0,3239.5761773105,1242709.0,,1.7768379700152328,84000032,USA,40345.65132415371,
New Hampshire,US,2020-10-31 04:30:34,43.4525,-71.5639,10884,482,9186.0,1216.0,33.0,800.4642162930211,609924.0,,4.428518926865123,84000033,USA,44856.88502924518,
New Jersey,US,2020-10-31 04:30:34,40.2989,-74.521,248338,16339,37016.0,183168.0,34.0,2662.8905709064998,4574507.0,,6.907996262519924,84000034,USA,51502.01695752962,
New Mexico,US,2020-10-31 04:30:34,34.8405,-106.2485,45909,1007,21389.0,23513.0,35.0,2189.448925019637,1153185.0,,2.1934696900389903,84000035,USA,54996.61631921344,
New York,US,2020-10-31 04:30:34,42.1657,-74.9481,509368,33553,79621.0,392304.0,36.0,2598.141286317708,14390756.0,,6.629193698051763,84000036,USA,73974.91903924428,
North Carolina,US,2020-10-31 04:30:34,35.6301,-79.8064,271830,4332,231611.0,35887.0,37.0,2591.7984638566973,4005791.0,,1.5936430857521244,84000037,USA,38193.73490906442,
North Dakota,US,2020-10-31 04:30:34,47.5289,-99.784,42483,512,34696.0,7275.0,38.0,5574.743262359229,823327.0,,1.2051879575359556,84000038,USA,108039.3721245778,
Northern Mariana Islands,US,2020-10-31 04:30:34,15.0979,145.6739,92,2,29.0,61.0,69.0,166.835920499057,16085.0,,2.1739130434782608,580,MNP,29169.084578557962,
Ohio,US,2020-10-31 04:30:34,40.3888,-82.7649,212782,5288,167035.0,40456.0,39.0,1820.3454500346481,4413936.0,,2.4865825116786198,84000039,USA,37761.12788837464,
Oklahoma,US,2020-10-31 04:30:34,35.5653,-96.9289,121495,1326,105137.0,15032.0,40.0,3070.40410455371,1601775.0,,1.0914029383925263,84000040,USA,40479.826614852616,
Oregon,US,2020-10-31 04:30:34,44.572,-122.0709,44388,675,5870.0,37843.0,41.0,1052.4127037793016,854938.0,,1.520681265206813,84000041,USA,20270.064254836183,
Pennsylvania,US,2020-10-31 04:30:34,40.5908,-77.2098,210694,8772,156192.0,45620.0,42.0,1644.947515577462,4070357.0,,4.166468806093474,84000042,USA,19555.555000086315,
Puerto Rico,US,2020-10-31 04:30:34,18.2208,-66.5901,65743,820,28912.0,36011.0,72.0,2241.18158810503,903170.0,,1.247281079354456,630,PRI,28279.7913638564,
Rhode Island,US,2020-10-31 04:30:34,41.6809,-71.5118,32874,1213,2763.0,28910.0,44.0,3103.1914522056218,1124307.0,,3.653343067469733,84000044,USA,106130.67688918133,
South Carolina,US,2020-10-31 04:30:34,33.8569,-80.945,175594,3896,90215.0,81483.0,45.0,3410.4438506392075,1788360.0,,2.2187546271512693,84000045,USA,34734.110304048736,
South Dakota,US,2020-10-31 04:30:34,44.2998,-99.4388,44559,415,30624.0,13520.0,46.0,5036.856008925473,256656.0,,0.9313494468008708,84000046,USA,29011.856545855517,
Tennessee,US,2020-10-31 04:30:34,35.7478,-86.6923,259488,3341,229669.0,26478.0,47.0,3799.6981772612617,3662089.0,,1.2875354544333455,84000047,USA,53624.18646823174,
Texas,US,2020-10-31 04:30:34,31.0545,-97.5635,934760,18714,776580.0,129482.0,48.0,3188.201110357709,8080012.0,,1.988756521466347,84000048,USA,27866.068287423306,
Utah,US,2020-10-31 04:30:34,40.15,-111.8624,112932,601,82752.0,29579.0,49.0,3522.5664216437017,1377493.0,,0.5321786561824815,84000049,USA,42966.65770418702,
Vermont,US,2020-10-31 04:30:34,44.0459,-72.7107,2155,58,1789.0,308.0,50.0,345.35865215572716,403053.0,,2.6914153132250584,84000050,USA,64592.96558112402,
Virgin Islands,US,2020-10-31 04:30:34,18.3358,-64.8963,1362,21,1315.0,26.0,78.0,1269.7169705783645,24219.0,,1.5418502202643172,850,VIR,22578.028862288847,
Virginia,US,2020-10-31 04:30:34,37.7693,-78.17,179639,3643,19929.0,156067.0,51.0,2104.6054727310666,2606664.0,,2.0279560674463784,84000051,USA,30539.021704479834,
Washington,US,2020-10-31 04:30:34,47.4009,-121.4905,109932,2331,,104207.0,53.0,1399.5337820242514,2405352.0,,2.2200745029228792,84000053,USA,31587.469449669217,
West Virginia,US,2020-10-31 04:30:34,38.4912,-80.9545,23992,453,18552.0,4987.0,54.0,1338.7294680626087,769302.0,,1.88812937645882,84000054,USA,42926.27781091618,
Wisconsin,US,2020-10-31 04:30:34,44.2685,-89.6165,232061,1972,171252.0,46867.0,55.0,3780.0514355336622,3235669.0,,0.8959930210685579,84000055,USA,55572.44616254988,
Wyoming,US,2020-10-31 04:30:34,42.756,-107.3025,13028,87,8455.0,4486.0,56.0,2251.0233102206616,129983.0,,0.6677924470371508,84000056,USA,22458.91640561961,
