Province_State,Country_Region,Last_Update,Lat,Long_,Confirmed,Deaths,Recovered,Active,FIPS,Incident_Rate,Total_Test_Results,People_Hospitalized,Case_Fatality_Ratio,UID,ISO3,Testing_Rate,Hospitalization_Rate
Alabama,US,2020-11-12 05:30:39,32.3182,-86.9023,208637,3201,84471.0,120965.0,1.0,4255.132123303526,2453125.0,,1.5342436864026994,84000001,USA,50031.25519432777,
Alaska,US,2020-11-12 05:30:39,61.3707,-152.4044,21338,98,7160.0,14075.0,2.0,2915.883506824597,834590.0,,0.4500492241338897,84000002,USA,114085.94139800011,
American Samoa,US,2020-11-12 05:30:39,-14.271,-170.132,0,0,,0.0,60.0,0.0,1768.0,,,16,ASM,3177.5129850290255,
Arizona,US,2020-11-12 05:30:39,33.7298,-111.4312,265163,6228,43990.0,214945.0,4.0,3642.9909282089143,3133703.0,,2.3487439801178898,84000004,USA,26217.656216061157,
Arkansas,US,2020-11-12 05:30:39,34.9697,-92.3731,126197,2126,110365.0,13706.0,5.0,4181.74937802455,1456994.0,,1.6846676228436492,84000005,USA,48279.94130831559,
California,US,2020-11-12 05:30:39,36.1162,-119.6816,1009319,18120,,977467.0,6.0,2519.6633456943187,20222093.0,,1.8188484041885344,84000006,USA,51179.33506297533,
Colorado,US,2020-11-12 05:30:39,39.0598,-105.3111,142402,2443,8846.0,131113.0,8.0,2472.799586575943,2306782.0,,1.7155657926152723,84000008,USA,40057.08891673451,
Connecticut,US,2020-11-12 05:30:39,41.5978,-72.7554,84741,4716,9800.0,70225.0,9.0,2376.8353010571104,2639205.0,,5.565192763833329,84000009,USA,74025.03641361832,
Delaware,US,2020-11-12 05:30:39,39.3185,-75.5071,27342,760,14380.0,12238.0,10.0,2807.8672039631783,603328.0,,2.6479408967888234,84000010,USA,61958.33898151912,
Diamond Princess,US,2020-11-12 05:30:39,,,49,0,,49.0,88888.0,,,,0.0,84088888,USA,,
District of Columbia,US,2020-11-12 05:30:39,38.8974,-77.0268,18379,657,14036.0,3686.0,11.0,2604.1836403593907,567072.0,,3.5747320311224766,84000011,USA,80350.37952586543,
Florida,US,2020-11-12 05:30:39,27.7663,-81.6868,858012,17300,,840712.0,12.0,3994.8901506709017,12474637.0,,2.0162888164734287,84000012,USA,58081.71037758773,
Georgia,US,2020-11-12 05:30:39,33.0406,-83.6431,413894,8806,,405561.0,13.0,3898.2528999739393,3786046.0,,2.1275978873817936,84000013,USA,35658.80345918214,
Grand Princess,US,2020-11-12 05:30:39,,,103,3,,100.0,99999.0,,,,2.9126213592233015,84099999,USA,,
Guam,US,2020-11-12 05:30:39,13.4443,144.7937,5654,91,3667.0,1896.0,66.0,3442.753715847993,74549.0,,1.6094800141492749,316,GUM,45393.32273837142,
Hawaii,US,2020-11-12 05:30:39,21.0943,-157.4983,16437,222,11958.0,4257.0,15.0,1160.9100257650412,574852.0,,1.3506114254425992,84000015,USA,40600.562762735615,
Idaho,US,2020-11-12 05:30:39,44.2405,-114.4788,77121,733,33330.0,43058.0,16.0,4315.5117469146335,413838.0,,0.9504544806213612,84000016,USA,23157.41173376458,
Illinois,US,2020-11-12 05:30:39,40.3495,-88.9861,523840,10798,,513042.0,17.0,4133.896777740153,8664483.0,,2.0613164324984727,84000017,USA,68375.98952826117,
Indiana,US,2020-11-12 05:30:39,39.8494,-86.2583,224374,5051,139444.0,80168.0,18.0,3332.838697018027,3307845.0,,2.1223492918074287,84000018,USA,49134.542414618416,
Iowa,US,2020-11-12 05:30:39,42.0115,-93.2105,168453,1927,104226.0,62300.0,19.0,5339.1208435945955,958353.0,,1.1439392590218045,84000019,USA,30375.015451321207,
Kansas,US,2020-11-12 05:30:39,38.5266,-96.7265,110840,1217,2913.0,106857.0,20.0,3807.2792702743336,703647.0,,1.0349988279629998,84000020,USA,24152.80330235601,
Kentucky,US,2020-11-12 05:30:39,37.6681,-84.6701,127344,1604,23165.0,102575.0,21.0,2850.342896626499,2105559.0,,1.259580349290112,84000021,USA,47128.76255715224,
Louisiana,US,2020-11-12 05:30:39,31.1695,-91.8678,194702,6058,172210.0,16434.0,22.0,4188.226021630556,2924923.0,,3.1114215570461528,84000022,USA,62917.88795115464,
Maine,US,2020-11-12 05:30:39,44.6939,-69.3819,8202,158,6226.0,2719.0,23.0,677.2741204512382,704573.0,,1.7464850615114236,84000023,USA,52415.31841703541,
Maryland,US,2020-11-12 05:30:39,39.0639,-76.8021,158423,4249,8313.0,145861.0,24.0,2620.4331026451946,3729915.0,,2.682060054411292,84000024,USA,61695.54127906208,
Massachusetts,US,2020-11-12 05:30:39,42.2302,-71.5301,177541,10222,131646.0,35673.0,25.0,2575.8566953108325,6906649.0,,5.757543328020008,84000025,USA,100205.23748774576,
Michigan,US,2020-11-12 05:30:39,43.3266,-84.5361,251872,8136,128981.0,114755.0,26.0,2522.034710219641,5482476.0,,3.230212171261593,84000026,USA,54896.91101014063,
Minnesota,US,2020-11-12 05:30:39,45.6945,-93.9002,194570,2810,157164.0,34596.0,27.0,3450.0478045376008,3150108.0,,1.4442103099141697,84000027,USA,55856.62326903598,
Mississippi,US,2020-11-12 05:30:39,32.7416,-89.6787,129394,3497,111430.0,14467.0,28.0,4347.698989533118,1003257.0,,2.7025982657619365,84000028,USA,33709.90498123582,
Missouri,US,2020-11-12 05:30:39,38.4561,-92.2884,234519,3347,,221335.0,29.0,3660.556180862733,2705205.0,,1.4817683295944166,84000029,USA,44077.176954255105,
Montana,US,2020-11-12 05:30:39,46.9219,-110.4544,42070,472,24594.0,17004.0,30.0,3936.271143305719,547728.0,,1.121939624435465,84000030,USA,51248.0608695164,
Nebraska,US,2020-11-12 05:30:39,41.1254,-98.2681,89942,731,49761.0,39450.0,31.0,4649.587884251926,1071705.0,,0.8127459918614218,84000031,USA,55402.221248051086,
Nevada,US,2020-11-12 05:30:39,38.3135,-117.0554,113411,1877,2560.0,108974.0,32.0,3681.988834331768,1362884.0,,1.6550422798493971,84000032,USA,44247.23942553558,
New Hampshire,US,2020-11-12 05:30:39,43.4525,-71.5639,13102,492,10233.0,2427.0,33.0,967.2643672074432,673987.0,,3.740875912408759,84000033,USA,49568.400932256925,
New Jersey,US,2020-11-12 05:30:39,40.2989,-74.521,282233,16476,38586.0,208433.0,34.0,2966.554419574452,5084793.0,,6.252870073435927,84000034,USA,57247.06406865874,
New Mexico,US,2020-11-12 05:30:39,34.8405,-106.2485,59034,1158,23736.0,34140.0,35.0,2815.3941022372355,1281951.0,,1.9615814615306435,84000035,USA,61137.60349556401,
New York,US,2020-11-12 05:30:39,42.1657,-74.9481,545453,33794,81020.0,425984.0,36.0,2780.801931327637,16068566.0,,6.256966716885565,84000036,USA,82599.61248225968,
North Carolina,US,2020-11-12 05:30:39,35.6301,-79.8064,300561,4698,261719.0,34144.0,37.0,2865.7379174308667,4460288.0,,1.563077045924122,84000037,USA,42527.19562505411,
North Dakota,US,2020-11-12 05:30:39,47.5289,-99.784,57373,686,45031.0,11656.0,38.0,7528.652524335291,917951.0,,1.1956843811548987,84000038,USA,120456.20959974384,
Northern Mariana Islands,US,2020-11-12 05:30:39,15.0979,145.6739,100,2,29.0,69.0,69.0,181.3433918468011,16567.0,,2.0,580,MNP,30043.159727259535,
Ohio,US,2020-11-12 05:30:39,40.3888,-82.7649,267356,5982,191950.0,69783.0,39.0,2287.2248505017496,5009783.0,,2.1031882583521595,84000039,USA,42858.58620424156,
Oklahoma,US,2020-11-12 05:30:39,35.5653,-96.9289,142334,1470,119144.0,21720.0,40.0,3597.0443048483294,1748137.0,,1.0327820478592606,84000040,USA,44178.665954337295,
Oregon,US,2020-11-12 05:30:39,44.572,-122.0709,52770,742,5870.0,46158.0,41.0,1251.1448674964795,928343.0,,1.4061019518665907,84000041,USA,22010.45252465955,
Pennsylvania,US,2020-11-12 05:30:39,40.5908,-77.2098,248344,9135,172791.0,66088.0,42.0,1937.3161467331365,4616587.0,,3.6836481664415457,84000042,USA,21341.441552558746,
Puerto Rico,US,2020-11-12 05:30:39,18.2208,-66.5901,39120,901,34032.0,4187.0,72.0,1333.6024173930118,990861.0,,2.303169734151329,630,PRI,31025.545966520272,
Rhode Island,US,2020-11-12 05:30:39,41.6809,-71.5118,39776,1266,3020.0,35513.0,44.0,3754.7162865161167,1281145.0,,3.125,84000044,USA,120935.63950343653,
South Carolina,US,2020-11-12 05:30:39,33.8569,-80.945,188995,4076,98621.0,86298.0,45.0,3670.722436709439,2000709.0,,2.156670811397127,84000045,USA,38858.421734048534,
South Dakota,US,2020-11-12 05:30:39,44.2998,-99.4388,58696,567,40668.0,17461.0,46.0,6634.872871920142,283120.0,,0.965994275589478,84000046,USA,32003.291663793618,
Tennessee,US,2020-11-12 05:30:39,35.7478,-86.6923,293381,3761,259438.0,30182.0,47.0,4295.995386850591,3974023.0,,1.2819507739083311,84000047,USA,58191.854534677244,
Texas,US,2020-11-12 05:30:39,31.0545,-97.5635,1072157,19849,831800.0,171067.0,48.0,3525.797336525143,9007171.0,,1.9043641229497932,84000048,USA,31063.622450374933,
Utah,US,2020-11-12 05:30:39,40.15,-111.8624,139720,678,97269.0,41773.0,49.0,4358.135696100822,1534980.0,,0.4852562267391927,84000049,USA,47878.98032351016,
Vermont,US,2020-11-12 05:30:39,44.0459,-72.7107,2535,59,1947.0,529.0,50.0,406.25716158457914,449806.0,,2.32741617357002,84000050,USA,72085.56561093223,
Virgin Islands,US,2020-11-12 05:30:39,18.3358,-64.8963,1413,23,1357.0,33.0,78.0,1317.2614386396688,25487.0,,1.6277423920736025,850,VIR,23760.114852518927,
Virginia,US,2020-11-12 05:30:39,37.7693,-78.17,196506,3741,21863.0,170902.0,51.0,2302.215014693307,2841807.0,,1.9037586638575918,84000051,USA,33293.898121485065,
Washington,US,2020-11-12 05:30:39,47.4009,-121.4905,126574,2453,,117529.0,53.0,1576.003760000305,2644425.0,,2.0681437534892635,84000053,USA,34727.014548989726,
West Virginia,US,2020-11-12 05:30:39,38.4912,-80.9545,30201,553,21877.0,7771.0,54.0,1685.1854228475675,875117.0,,1.8310651965166715,84000054,USA,48830.648378732316,
Wisconsin,US,2020-11-12 05:30:39,44.2685,-89.6165,301349,2457,219304.0,79588.0,55.0,5175.653343601663,3679124.0,,0.8475223080215962,84000055,USA,63188.762637755965,
Wyoming,US,2020-11-12 05:30:39,42.756,-107.3025,19374,127,11234.0,8013.0,56.0,3347.507338978746,146613.0,,0.6555177041395684,84000056,USA,25332.30584751166,
