Province_State,Country_Region,Last_Update,Lat,Long_,Confirmed,Deaths,Recovered,Active,FIPS,Incident_Rate,Total_Test_Results,People_Hospitalized,Case_Fatality_Ratio,UID,ISO3,Testing_Rate,Hospitalization_Rate
Alabama,US,2020-12-24 05:30:27,32.3182,-86.9023,334569,4587,193149.0,136833.0,1.0,6823.50349823635,3142148.0,,1.3710176376173524,84000001.0,USA,64083.81490806486,
Alaska,US,2020-12-24 05:30:27,61.3707,-152.4044,44852,197,7165.0,37466.0,2.0,6127.852695322913,1222027.0,,0.439457481930936,84000002.0,USA,167047.41335119508,
American Samoa,US,2020-12-24 05:30:27,-14.271,-170.132,0,0,,0.0,60.0,0.0,2140.0,,,16.0,ASM,3846.084721698028,
Arizona,US,2020-12-24 05:30:27,33.7298,-111.4312,473273,8179,69298.0,395796.0,4.0,6502.148661639132,4732267.0,,1.728178028326146,84000004.0,USA,37067.178185386234,
Arkansas,US,2020-12-24 05:30:27,34.9697,-92.3731,207941,3376,182024.0,22541.0,5.0,6890.474000299556,1970855.0,,1.6235374457177758,84000005.0,USA,65307.587901666244,
California,US,2020-12-24 05:30:27,36.1162,-119.6816,2077172,23350,,1978936.0,6.0,5068.036794588854,30468560.0,,1.1764329880638844,84000006.0,USA,77111.7332477092,
Colorado,US,2020-12-24 05:30:27,39.0598,-105.3111,316500,4462,16807.0,295231.0,8.0,5495.997732835816,4153784.0,,1.4097946287519747,84000008.0,USA,72130.13411276363,
Connecticut,US,2020-12-24 05:30:27,41.5978,-72.7554,170705,5736,9800.0,155169.0,9.0,4787.9735909058645,4087417.0,,3.3601827714478194,84000009.0,USA,114644.82382484215,
Delaware,US,2020-12-24 05:30:27,39.3185,-75.5071,52235,989,18851.0,32512.0,10.0,5364.236098274325,913754.0,,1.6693787690246005,84000010.0,USA,93837.31581779571,
Diamond Princess,US,2020-12-24 05:30:27,,,49,0,,49.0,88888.0,,,,0.0,84088888.0,USA,,
District of Columbia,US,2020-12-24 05:30:27,38.8974,-77.0268,27226,751,19514.0,6961.0,11.0,3857.7454590796447,849992.0,,2.7583927128480132,84000011.0,USA,120438.28613288859,
Florida,US,2020-12-24 05:30:27,27.7663,-81.6868,1234399,20874,,1213525.0,12.0,5747.3420034894725,16566431.0,,1.691025349178021,84000012.0,USA,77133.03780561239,
Georgia,US,2020-12-24 05:30:27,33.0406,-83.6431,608290,10519,,597771.0,13.0,5729.167991140601,5086136.0,,1.729273866083611,84000013.0,USA,47903.67681498609,
Grand Princess,US,2020-12-24 05:30:27,,,103,3,,100.0,99999.0,,,,2.9126213592233015,84099999.0,USA,,
Guam,US,2020-12-24 05:30:27,13.4443,144.7937,7257,121,6707.0,429.0,66.0,4418.829804723891,94482.0,,1.6673556566074137,316.0,GUM,57530.64318725683,
Hawaii,US,2020-12-24 05:30:27,21.0943,-157.4983,21015,285,11958.0,8625.0,15.0,1473.8620440265784,781435.0,,1.3657274295572168,84000015.0,USA,55191.076594494414,
Idaho,US,2020-12-24 05:30:27,44.2405,-114.4788,133985,1324,51996.0,80665.0,16.0,7497.488899396497,530538.0,,0.9881703175728628,84000016.0,USA,29687.672244714096,
Illinois,US,2020-12-24 05:30:27,40.3495,-88.9861,918070,16842,,901228.0,17.0,7244.972920624431,12688071.0,,1.8345006372063133,84000017.0,USA,100128.23729123069,
Indiana,US,2020-12-24 05:30:27,39.8494,-86.2583,476538,8658,308573.0,160320.0,18.0,7078.468481194685,5376575.0,,1.6042791970419987,84000018.0,USA,79863.34074990728,
Iowa,US,2020-12-24 05:30:27,42.0115,-93.2105,272112,3667,222079.0,46366.0,19.0,8624.594699959114,1154784.0,,1.3476068677603341,84000019.0,USA,36600.89950460688,
Kansas,US,2020-12-24 05:30:27,38.5266,-96.7265,212612,2505,4286.0,206073.0,20.0,7306.181208067514,962204.0,,1.1712363520192437,84000020.0,USA,33027.816431733765,
Kentucky,US,2020-12-24 05:30:27,37.6681,-84.6701,250279,2466,35478.0,212335.0,21.0,5601.999072000122,3061692.0,,0.9853004047483008,84000021.0,USA,68529.90359858477,
Louisiana,US,2020-12-24 05:30:27,31.1695,-91.8678,293934,7226,247501.0,39207.0,22.0,6322.801139392282,4050466.0,,2.4583750093558416,84000022.0,USA,87129.39312862649,
Maine,US,2020-12-24 05:30:27,44.6939,-69.3819,20491,311,11039.0,9141.0,23.0,1524.3875222063184,1058598.0,,1.5177394953882193,84000023.0,USA,78752.30990349737,
Maryland,US,2020-12-24 05:30:27,39.0639,-76.8021,257862,5568,9197.0,243097.0,24.0,4265.227402045758,5419999.0,,2.159294506363869,84000024.0,USA,89650.77542972834,
Massachusetts,US,2020-12-24 05:30:27,42.2302,-71.5301,335988,11887,206843.0,117258.0,25.0,4874.687758568985,10399569.0,,3.5379239734752432,84000025.0,USA,150882.3282340247,
Michigan,US,2020-12-24 05:30:27,43.3266,-84.5361,508449,12415,284731.0,211303.0,26.0,5091.181339634682,7850048.0,,2.4417394861628208,84000026.0,USA,78603.78895982991,
Minnesota,US,2020-12-24 05:30:27,45.6945,-93.9002,402519,5030,379512.0,17977.0,27.0,7137.327400085679,5094803.0,,1.2496304522270998,84000027.0,USA,90339.28100273211,
Mississippi,US,2020-12-24 05:30:27,32.7416,-89.6787,200325,4533,154669.0,41123.0,28.0,6731.013803408364,1327983.0,,2.262822912766754,84000028.0,USA,44620.85063617447,
Missouri,US,2020-12-24 05:30:27,38.4561,-92.2884,414769,5435,,377855.0,29.0,6244.651668418758,3513613.0,,1.41052702988303,84000029.0,USA,57248.94858237033,
Montana,US,2020-12-24 05:30:27,46.9219,-110.4544,78522,914,69555.0,8053.0,30.0,7346.895239235838,766196.0,,1.1640049922314766,84000030.0,USA,71688.97563385473,
Nebraska,US,2020-12-24 05:30:27,41.1254,-98.2681,159662,1561,96359.0,61742.0,31.0,8253.791340813314,1662324.0,,0.9776903709085444,84000031.0,USA,85934.50812858508,
Nevada,US,2020-12-24 05:30:27,38.3135,-117.0554,209962,2869,,207093.0,32.0,6816.602795442828,1984938.0,,1.3664377363522924,84000032.0,USA,64442.774976332366,
New Hampshire,US,2020-12-24 05:30:27,43.4525,-71.5639,38872,677,31426.0,6409.0,33.0,2832.3665837814065,979534.0,,1.7578936435396761,84000033.0,USA,72039.86729532966,
New Jersey,US,2020-12-24 05:30:27,40.2989,-74.521,491341,18466,52422.0,374250.0,34.0,5011.5793514887655,7347647.0,,4.148376458536454,84000034.0,USA,82723.37115058336,
New Mexico,US,2020-12-24 05:30:27,34.8405,-106.2485,133242,2243,57980.0,73019.0,35.0,6354.452365929697,1861862.0,,1.6834031311448343,84000035.0,USA,88794.17444150189,
New York,US,2020-12-24 05:30:27,42.1657,-74.9481,886813,36697,96857.0,744969.0,36.0,4516.921092236018,23843897.0,,4.19664459623399,84000036.0,USA,122568.2896822849,
North Carolina,US,2020-12-24 05:30:27,35.6301,-79.8064,494511,6360,403488.0,84663.0,37.0,4714.979399478494,6547998.0,,1.286119014541638,84000037.0,USA,62432.73795289969,
North Dakota,US,2020-12-24 05:30:27,47.5289,-99.784,90722,1243,87091.0,2388.0,38.0,11904.805645734861,1211720.0,,1.37011970635568,84000038.0,USA,159005.4352532996,
Northern Mariana Islands,US,2020-12-24 05:30:27,15.0979,145.6739,118,2,29.0,87.0,69.0,213.9852023792253,17545.0,,1.6949152542372878,580.0,MNP,31816.69809952125,
Ohio,US,2020-12-24 05:30:27,40.3888,-82.7649,644822,12320,479387.0,157074.0,39.0,5516.43839132183,7412467.0,,1.296636901346418,84000039.0,USA,63413.49633419168,
Oklahoma,US,2020-12-24 05:30:27,35.5653,-96.9289,269417,2283,231522.0,35471.0,40.0,6805.10420723326,2543255.0,,0.8478289933005541,84000040.0,USA,64272.773290479,
Oregon,US,2020-12-24 05:30:27,44.572,-122.0709,105970,1403,5870.0,98697.0,41.0,2512.4847756035997,2517896.0,,1.32395961121072,84000041.0,USA,59697.795286903856,
Pennsylvania,US,2020-12-24 05:30:27,40.5908,-77.2098,587208,14512,360316.0,211718.0,42.0,4581.116262480776,7148310.0,,2.4621722361093585,84000042.0,USA,29389.35504475125,
Puerto Rico,US,2020-12-24 05:30:27,18.2208,-66.5901,70488,1408,58562.0,10518.0,72.0,2207.0993651865206,1342238.0,,1.9975031210986267,630.0,PRI,42027.758451498485,
Rhode Island,US,2020-12-24 05:30:27,41.6809,-71.5118,82066,1807,5041.0,75321.0,44.0,7746.745443715598,1887457.0,,2.0763775497770087,84000044.0,USA,178169.38701726796,
South Carolina,US,2020-12-24 05:30:27,33.8569,-80.945,282230,5028,140452.0,136750.0,45.0,5481.562968927775,2975719.0,,1.781525705984481,84000045.0,USA,57795.38346857099,
South Dakota,US,2020-12-24 05:30:27,44.2998,-99.4388,96040,1389,87337.0,7314.0,46.0,10856.160396265679,365126.0,,1.4462723865056226,84000046.0,USA,41273.0781012797,
Tennessee,US,2020-12-24 05:30:27,35.7478,-86.6923,541240,6380,455586.0,79274.0,47.0,7925.409427260163,5446359.0,,1.1787746655827358,84000047.0,USA,79751.3579241062,
Texas,US,2020-12-24 05:30:27,31.0545,-97.5635,1652488,26580,1311851.0,310312.0,48.0,5685.528230716632,13021855.0,,1.6017527928767312,84000048.0,USA,44909.326948886286,
Utah,US,2020-12-24 05:30:27,40.15,-111.8624,257697,1196,200943.0,55558.0,49.0,8038.06537702615,2155708.0,,0.4641109520095306,84000049.0,USA,67240.68125658539,
Vermont,US,2020-12-24 05:30:27,44.0459,-72.7107,6680,117,4380.0,2183.0,50.0,1070.5316920650844,663684.0,,1.7514970059880242,84000050.0,USA,106361.49034678497,
Virgin Islands,US,2020-12-24 05:30:27,18.3358,-64.8963,1950,23,1802.0,125.0,78.0,1817.8767199910503,34711.0,,1.1794871794871795,850.0,VIR,32359.13786031249,
Virginia,US,2020-12-24 05:30:27,37.7693,-78.17,319133,4760,28330.0,286043.0,51.0,3738.882193338214,4029903.0,,1.4915411442878048,84000051.0,USA,47213.33289750746,
Washington,US,2020-12-24 05:30:27,47.4009,-121.4905,230202,3162,,227040.0,53.0,3023.0497001074077,3590459.0,,1.3735762504235411,84000053.0,USA,47150.48523991079,
West Virginia,US,2020-12-24 05:30:27,38.4912,-80.9545,75936,1194,51916.0,22826.0,54.0,4237.152421090457,1423899.0,,1.5723767383059417,84000054.0,USA,79452.13199586864,
Wisconsin,US,2020-12-24 05:30:27,44.2685,-89.6165,500443,4953,424946.0,70544.0,55.0,8595.082400247044,5139420.0,,0.9897231053286788,84000055.0,USA,88269.2702055532,
Wyoming,US,2020-12-24 05:30:27,42.756,-107.3025,42664,373,40258.0,2033.0,56.0,7371.634825549149,478351.0,,0.8742733920870054,84000056.0,USA,82651.15531680718,
